%YAML 1.1
%TAG !u! tag:unity3d.com,2011:
--- !u!74 &7400000
AnimationClip:
  m_ObjectHideFlags: 0
  m_CorrespondingSourceObject: {fileID: 0}
  m_PrefabInstance: {fileID: 0}
  m_PrefabAsset: {fileID: 0}
  m_Name: StarAnim
  serializedVersion: 6
  m_Legacy: 0
  m_Compressed: 0
  m_UseHighQualityCurve: 1
  m_RotationCurves: []
  m_CompressedRotationCurves: []
  m_EulerCurves: []
  m_PositionCurves: []
  m_ScaleCurves: []
  m_FloatCurves: []
  m_PPtrCurves:
  - curve:
    - time: 0
      value: {fileID: 21300000, guid: 8873b6448e7094ea9861c4adb3446863, type: 3}
    - time: 0.125
      value: {fileID: 21300000, guid: 7217c7d8369ef425fb7595f18eca11f8, type: 3}
    - time: 0.25
      value: {fileID: 21300000, guid: d1aacfd62b97944e4b44813b746f7f3b, type: 3}
    - time: 0.375
      value: {fileID: 21300000, guid: cd17048ac3cae4866b2c901e53308c7a, type: 3}
    - time: 0.5
      value: {fileID: 21300000, guid: 28da0da3a9b8048c39f1c7234ef3a760, type: 3}
    - time: 0.625
      value: {fileID: 21300000, guid: cbba5e13fbf474432b7340b6077eebe6, type: 3}
    - time: 0.75
      value: {fileID: 21300000, guid: 8873b6448e7094ea9861c4adb3446863, type: 3}
    attribute: m_Sprite
    path: 
    classID: 212
    script: {fileID: 0}
  m_SampleRate: 80
  m_WrapMode: 0
  m_Bounds:
    m_Center: {x: 0, y: 0, z: 0}
    m_Extent: {x: 0, y: 0, z: 0}
  m_ClipBindingConstant:
    genericBindings:
    - serializedVersion: 2
      path: 0
      attribute: 0
      script: {fileID: 0}
      typeID: 212
      customType: 23
      isPPtrCurve: 1
    pptrCurveMapping:
    - {fileID: 21300000, guid: 8873b6448e7094ea9861c4adb3446863, type: 3}
    - {fileID: 21300000, guid: 7217c7d8369ef425fb7595f18eca11f8, type: 3}
    - {fileID: 21300000, guid: d1aacfd62b97944e4b44813b746f7f3b, type: 3}
    - {fileID: 21300000, guid: cd17048ac3cae4866b2c901e53308c7a, type: 3}
    - {fileID: 21300000, guid: 28da0da3a9b8048c39f1c7234ef3a760, type: 3}
    - {fileID: 21300000, guid: cbba5e13fbf474432b7340b6077eebe6, type: 3}
    - {fileID: 21300000, guid: 8873b6448e7094ea9861c4adb3446863, type: 3}
  m_AnimationClipSettings:
    serializedVersion: 2
    m_AdditiveReferencePoseClip: {fileID: 0}
    m_AdditiveReferencePoseTime: 0
    m_StartTime: 0
    m_StopTime: 0.7625
    m_OrientationOffsetY: 0
    m_Level: 0
    m_CycleOffset: 0
    m_HasAdditiveReferencePose: 0
    m_LoopTime: 1
    m_LoopBlend: 0
    m_LoopBlendOrientation: 0
    m_LoopBlendPositionY: 0
    m_LoopBlendPositionXZ: 0
    m_KeepOriginalOrientation: 0
    m_KeepOriginalPositionY: 1
    m_KeepOriginalPositionXZ: 0
    m_HeightFromFeet: 0
    m_Mirror: 0
  m_EditorCurves: []
  m_EulerEditorCurves: []
  m_HasGenericRootTransform: 0
  m_HasMotionFloatCurves: 0
  m_Events: []
