Library\Bee\artifacts\mvdfrm\Unity.VisualScripting.Core.ref.dll_27ACA245D8399F39.mvfrm
Library\Bee\artifacts\mvdfrm\Unity.VisualScripting.Flow.ref.dll_6EBD829C5A4313E8.mvfrm
Library\Bee\artifacts\mvdfrm\UnityEngine.UI.ref.dll_FAE6DBEA21006BE5.mvfrm
Library\Bee\artifacts\mvdfrm\Unity.Burst.Cecil.dll_95612A3C9F7CC251.mvfrm
Library\Bee\artifacts\mvdfrm\Unity.Burst.Cecil.Mdb.dll_49618FDAFC1791CE.mvfrm
Library\Bee\artifacts\mvdfrm\Unity.Burst.Cecil.Pdb.dll_60B4084A7ACC9351.mvfrm
Library\Bee\artifacts\mvdfrm\Unity.Burst.Cecil.Rocks.dll_BD79A69ABC031791.mvfrm
Library\Bee\artifacts\mvdfrm\Unity.Burst.Unsafe.dll_144C9B90B0BA1FF2.mvfrm
Library\Bee\artifacts\mvdfrm\Unity.VisualScripting.Antlr3.Runtime.dll_30217D59702C0031.mvfrm
Library\Bee\artifacts\mvdfrm\UnityEngine.AccessibilityModule.dll_86AD36C76ABDEC3A.mvfrm
Library\Bee\artifacts\mvdfrm\UnityEngine.AIModule.dll_DC9A81849C4B6F20.mvfrm
Library\Bee\artifacts\mvdfrm\UnityEngine.AndroidJNIModule.dll_744EDD6AECC1C4DE.mvfrm
Library\Bee\artifacts\mvdfrm\UnityEngine.AnimationModule.dll_79AA57B543DE2C60.mvfrm
Library\Bee\artifacts\mvdfrm\UnityEngine.ARModule.dll_960D4687F968CDE9.mvfrm
Library\Bee\artifacts\mvdfrm\UnityEngine.AssetBundleModule.dll_749359C098378F8E.mvfrm
Library\Bee\artifacts\mvdfrm\UnityEngine.AudioModule.dll_2087ADA7A3E57552.mvfrm
Library\Bee\artifacts\mvdfrm\UnityEngine.ClothModule.dll_87700AA27E025436.mvfrm
Library\Bee\artifacts\mvdfrm\UnityEngine.ClusterInputModule.dll_3EB8F948D59499C8.mvfrm
Library\Bee\artifacts\mvdfrm\UnityEngine.ClusterRendererModule.dll_779D2E53A8C38EB9.mvfrm
Library\Bee\artifacts\mvdfrm\UnityEngine.CoreModule.dll_2D34207432C05D77.mvfrm
Library\Bee\artifacts\mvdfrm\UnityEngine.CrashReportingModule.dll_7D4DB7BA3A32816F.mvfrm
Library\Bee\artifacts\mvdfrm\UnityEngine.DirectorModule.dll_372151BABAFCD154.mvfrm
Library\Bee\artifacts\mvdfrm\UnityEngine.dll_D0D58E6DE492326E.mvfrm
Library\Bee\artifacts\mvdfrm\UnityEngine.DSPGraphModule.dll_3C72B3242D5DA275.mvfrm
Library\Bee\artifacts\mvdfrm\UnityEngine.GameCenterModule.dll_9E9C2785B302B5CF.mvfrm
Library\Bee\artifacts\mvdfrm\UnityEngine.GIModule.dll_74D6CA9237FA573A.mvfrm
Library\Bee\artifacts\mvdfrm\UnityEngine.GridModule.dll_0AA53C624B14F36E.mvfrm
Library\Bee\artifacts\mvdfrm\UnityEngine.HotReloadModule.dll_FAF315BB1F1147E2.mvfrm
Library\Bee\artifacts\mvdfrm\UnityEngine.ImageConversionModule.dll_E38F2C042AE846AD.mvfrm
Library\Bee\artifacts\mvdfrm\UnityEngine.IMGUIModule.dll_58E74D0E6A170933.mvfrm
Library\Bee\artifacts\mvdfrm\UnityEngine.InputLegacyModule.dll_05D874DF3029457F.mvfrm
Library\Bee\artifacts\mvdfrm\UnityEngine.InputModule.dll_86FD75581A1D99F6.mvfrm
Library\Bee\artifacts\mvdfrm\UnityEngine.JSONSerializeModule.dll_E6C4C00369F94CC4.mvfrm
Library\Bee\artifacts\mvdfrm\UnityEngine.LocalizationModule.dll_7D05C39B6D108CC1.mvfrm
Library\Bee\artifacts\mvdfrm\UnityEngine.ParticleSystemModule.dll_D0600106A8440CFD.mvfrm
Library\Bee\artifacts\mvdfrm\UnityEngine.PerformanceReportingModule.dll_9B48D982BA152936.mvfrm
Library\Bee\artifacts\mvdfrm\UnityEngine.Physics2DModule.dll_C65047A5E4DB23F5.mvfrm
Library\Bee\artifacts\mvdfrm\UnityEngine.PhysicsModule.dll_C03F622DE146DE63.mvfrm
Library\Bee\artifacts\mvdfrm\UnityEngine.ProfilerModule.dll_69678AF154565861.mvfrm
Library\Bee\artifacts\mvdfrm\UnityEngine.RuntimeInitializeOnLoadManagerInitializerModule.dll_34467517BD33FEBE.mvfrm
Library\Bee\artifacts\mvdfrm\UnityEngine.ScreenCaptureModule.dll_00AC6D887E657926.mvfrm
Library\Bee\artifacts\mvdfrm\UnityEngine.SharedInternalsModule.dll_67A06AD9A21641FD.mvfrm
Library\Bee\artifacts\mvdfrm\UnityEngine.SpriteMaskModule.dll_87C89A15D4724B49.mvfrm
Library\Bee\artifacts\mvdfrm\UnityEngine.SpriteShapeModule.dll_8DF4871B4DD9C798.mvfrm
Library\Bee\artifacts\mvdfrm\UnityEngine.StreamingModule.dll_2E3F45059365E39E.mvfrm
Library\Bee\artifacts\mvdfrm\UnityEngine.SubstanceModule.dll_0AEA594EDEB8E1AC.mvfrm
Library\Bee\artifacts\mvdfrm\UnityEngine.SubsystemsModule.dll_F2760077A2BA335C.mvfrm
Library\Bee\artifacts\mvdfrm\UnityEngine.TerrainModule.dll_DA85DD9CB7052751.mvfrm
Library\Bee\artifacts\mvdfrm\UnityEngine.TerrainPhysicsModule.dll_D0DAA9D9C187078A.mvfrm
Library\Bee\artifacts\mvdfrm\UnityEngine.TextCoreFontEngineModule.dll_7A19064CB2457D15.mvfrm
Library\Bee\artifacts\mvdfrm\UnityEngine.TextCoreTextEngineModule.dll_C2013CBE41C93633.mvfrm
Library\Bee\artifacts\mvdfrm\UnityEngine.TextRenderingModule.dll_29EBDF93359CF91B.mvfrm
Library\Bee\artifacts\mvdfrm\UnityEngine.TilemapModule.dll_7982451DCEC2085A.mvfrm
Library\Bee\artifacts\mvdfrm\UnityEngine.TLSModule.dll_3C345D5CFADA5E77.mvfrm
Library\Bee\artifacts\mvdfrm\UnityEngine.UIElementsModule.dll_F6B461DFA5E66F53.mvfrm
Library\Bee\artifacts\mvdfrm\UnityEngine.UIElementsNativeModule.dll_DC597FDF48CB68CA.mvfrm
Library\Bee\artifacts\mvdfrm\UnityEngine.UIModule.dll_D80E1FB1F89274CC.mvfrm
Library\Bee\artifacts\mvdfrm\UnityEngine.UmbraModule.dll_9B5C59C0310C20C5.mvfrm
Library\Bee\artifacts\mvdfrm\UnityEngine.UNETModule.dll_BFDA685D7FCF52F0.mvfrm
Library\Bee\artifacts\mvdfrm\UnityEngine.UnityAnalyticsCommonModule.dll_368796C6D3FDC794.mvfrm
Library\Bee\artifacts\mvdfrm\UnityEngine.UnityAnalyticsModule.dll_EFFF71D0546B5EF9.mvfrm
Library\Bee\artifacts\mvdfrm\UnityEngine.UnityConnectModule.dll_AC7C08421E94C7AD.mvfrm
Library\Bee\artifacts\mvdfrm\UnityEngine.UnityCurlModule.dll_ACC6F8E6B3F21E4D.mvfrm
Library\Bee\artifacts\mvdfrm\UnityEngine.UnityTestProtocolModule.dll_F1DFF28FDCA0593B.mvfrm
Library\Bee\artifacts\mvdfrm\UnityEngine.UnityWebRequestAssetBundleModule.dll_248EBD54CF58948A.mvfrm
Library\Bee\artifacts\mvdfrm\UnityEngine.UnityWebRequestAudioModule.dll_13452D61407FF3CE.mvfrm
Library\Bee\artifacts\mvdfrm\UnityEngine.UnityWebRequestModule.dll_F52E33AE35DCE12C.mvfrm
Library\Bee\artifacts\mvdfrm\UnityEngine.UnityWebRequestTextureModule.dll_1B212950312F2F63.mvfrm
Library\Bee\artifacts\mvdfrm\UnityEngine.UnityWebRequestWWWModule.dll_8CC3821A3188F29F.mvfrm
Library\Bee\artifacts\mvdfrm\UnityEngine.VehiclesModule.dll_AEE44B3A3526A0EF.mvfrm
Library\Bee\artifacts\mvdfrm\UnityEngine.VFXModule.dll_BD12F5CBD147C7E4.mvfrm
Library\Bee\artifacts\mvdfrm\UnityEngine.VideoModule.dll_45913212667790F7.mvfrm
Library\Bee\artifacts\mvdfrm\UnityEngine.VirtualTexturingModule.dll_00E6344E2179E955.mvfrm
Library\Bee\artifacts\mvdfrm\UnityEngine.VRModule.dll_2AE046379A4CFA44.mvfrm
Library\Bee\artifacts\mvdfrm\UnityEngine.WindModule.dll_A382FB9CC3F6DBE0.mvfrm
Library\Bee\artifacts\mvdfrm\UnityEngine.XRModule.dll_5D9F093C238747A2.mvfrm