%YAML 1.1
%TAG !u! tag:unity3d.com,2011:
--- !u!78 &1
TagManager:
  serializedVersion: 2
  tags: []
  layers:
  - Default
  - TransparentFX
  - Ignore Raycast
  - 
  - Water
  - UI
  - Chao
  - Wall
  - Carrot
  - Star
  - Espinho
  - Checkpoint
  - Win
  - 
  - 
  - 
  - 
  - 
  - 
  - 
  - 
  - 
  - 
  - 
  - 
  - 
  - 
  - 
  - 
  - 
  - 
  - 
  m_SortingLayers:
  - name: Default
    uniqueID: 0
    locked: 0
  - name: BackGround
    uniqueID: 3288161869
    locked: 0
  - name: ForeGround
    uniqueID: 1537906057
    locked: 0
  - name: Player
    uniqueID: 374648699
    locked: 0
  - name: UI
    uniqueID: 1109444825
    locked: 0
