%YAML 1.1
%TAG !u! tag:unity3d.com,2011:
--- !u!1 &614967124641703924
GameObject:
  m_ObjectHideFlags: 0
  m_CorrespondingSourceObject: {fileID: 0}
  m_PrefabInstance: {fileID: 0}
  m_PrefabAsset: {fileID: 0}
  serializedVersion: 6
  m_Component:
  - component: {fileID: 8328501700643699748}
  - component: {fileID: 7797489372165408112}
  m_Layer: 0
  m_Name: Tilemap
  m_TagString: Untagged
  m_Icon: {fileID: 0}
  m_NavMeshLayer: 0
  m_StaticEditorFlags: 0
  m_IsActive: 1
--- !u!4 &8328501700643699748
Transform:
  m_ObjectHideFlags: 0
  m_CorrespondingSourceObject: {fileID: 0}
  m_PrefabInstance: {fileID: 0}
  m_PrefabAsset: {fileID: 0}
  m_GameObject: {fileID: 614967124641703924}
  m_LocalRotation: {x: 0, y: 0, z: 0, w: 1}
  m_LocalPosition: {x: 0, y: 0, z: 0}
  m_LocalScale: {x: 1, y: 1, z: 1}
  m_ConstrainProportionsScale: 0
  m_Children:
  - {fileID: 1788067769095130694}
  m_Father: {fileID: 0}
  m_RootOrder: 0
  m_LocalEulerAnglesHint: {x: 0, y: 0, z: 0}
--- !u!156049354 &7797489372165408112
Grid:
  m_ObjectHideFlags: 0
  m_CorrespondingSourceObject: {fileID: 0}
  m_PrefabInstance: {fileID: 0}
  m_PrefabAsset: {fileID: 0}
  m_GameObject: {fileID: 614967124641703924}
  m_Enabled: 1
  m_CellSize: {x: 1, y: 1, z: 0}
  m_CellGap: {x: 0, y: 0, z: 0}
  m_CellLayout: 0
  m_CellSwizzle: 0
--- !u!1 &3624777791393869251
GameObject:
  m_ObjectHideFlags: 0
  m_CorrespondingSourceObject: {fileID: 0}
  m_PrefabInstance: {fileID: 0}
  m_PrefabAsset: {fileID: 0}
  serializedVersion: 6
  m_Component:
  - component: {fileID: 1788067769095130694}
  - component: {fileID: 5714483328525725648}
  - component: {fileID: 2058400369332980304}
  m_Layer: 0
  m_Name: Layer1
  m_TagString: Untagged
  m_Icon: {fileID: 0}
  m_NavMeshLayer: 0
  m_StaticEditorFlags: 0
  m_IsActive: 1
--- !u!4 &1788067769095130694
Transform:
  m_ObjectHideFlags: 0
  m_CorrespondingSourceObject: {fileID: 0}
  m_PrefabInstance: {fileID: 0}
  m_PrefabAsset: {fileID: 0}
  m_GameObject: {fileID: 3624777791393869251}
  m_LocalRotation: {x: -0, y: -0, z: -0, w: 1}
  m_LocalPosition: {x: 0, y: 0, z: 0}
  m_LocalScale: {x: 1, y: 1, z: 1}
  m_ConstrainProportionsScale: 0
  m_Children: []
  m_Father: {fileID: 8328501700643699748}
  m_RootOrder: 0
  m_LocalEulerAnglesHint: {x: 0, y: 0, z: 0}
--- !u!1839735485 &5714483328525725648
Tilemap:
  m_ObjectHideFlags: 0
  m_CorrespondingSourceObject: {fileID: 0}
  m_PrefabInstance: {fileID: 0}
  m_PrefabAsset: {fileID: 0}
  m_GameObject: {fileID: 3624777791393869251}
  m_Enabled: 1
  m_Tiles:
  - first: {x: -1, y: -10, z: 0}
    second:
      serializedVersion: 2
      m_TileIndex: 101
      m_TileSpriteIndex: 101
      m_TileMatrixIndex: 0
      m_TileColorIndex: 0
      m_TileObjectToInstantiateIndex: 65535
      dummyAlignment: 0
      m_AllTileFlags: 1073741825
  - first: {x: 0, y: -10, z: 0}
    second:
      serializedVersion: 2
      m_TileIndex: 102
      m_TileSpriteIndex: 102
      m_TileMatrixIndex: 0
      m_TileColorIndex: 0
      m_TileObjectToInstantiateIndex: 65535
      dummyAlignment: 0
      m_AllTileFlags: 1073741825
  - first: {x: 2, y: -10, z: 0}
    second:
      serializedVersion: 2
      m_TileIndex: 103
      m_TileSpriteIndex: 103
      m_TileMatrixIndex: 0
      m_TileColorIndex: 0
      m_TileObjectToInstantiateIndex: 65535
      dummyAlignment: 0
      m_AllTileFlags: 1073741825
  - first: {x: 3, y: -10, z: 0}
    second:
      serializedVersion: 2
      m_TileIndex: 104
      m_TileSpriteIndex: 104
      m_TileMatrixIndex: 0
      m_TileColorIndex: 0
      m_TileObjectToInstantiateIndex: 65535
      dummyAlignment: 0
      m_AllTileFlags: 1073741825
  - first: {x: 6, y: -10, z: 0}
    second:
      serializedVersion: 2
      m_TileIndex: 105
      m_TileSpriteIndex: 105
      m_TileMatrixIndex: 0
      m_TileColorIndex: 0
      m_TileObjectToInstantiateIndex: 65535
      dummyAlignment: 0
      m_AllTileFlags: 1073741825
  - first: {x: 7, y: -10, z: 0}
    second:
      serializedVersion: 2
      m_TileIndex: 106
      m_TileSpriteIndex: 106
      m_TileMatrixIndex: 0
      m_TileColorIndex: 0
      m_TileObjectToInstantiateIndex: 65535
      dummyAlignment: 0
      m_AllTileFlags: 1073741825
  - first: {x: 8, y: -10, z: 0}
    second:
      serializedVersion: 2
      m_TileIndex: 107
      m_TileSpriteIndex: 107
      m_TileMatrixIndex: 0
      m_TileColorIndex: 0
      m_TileObjectToInstantiateIndex: 65535
      dummyAlignment: 0
      m_AllTileFlags: 1073741825
  - first: {x: 9, y: -10, z: 0}
    second:
      serializedVersion: 2
      m_TileIndex: 108
      m_TileSpriteIndex: 108
      m_TileMatrixIndex: 0
      m_TileColorIndex: 0
      m_TileObjectToInstantiateIndex: 65535
      dummyAlignment: 0
      m_AllTileFlags: 1073741825
  - first: {x: -1, y: -9, z: 0}
    second:
      serializedVersion: 2
      m_TileIndex: 89
      m_TileSpriteIndex: 89
      m_TileMatrixIndex: 0
      m_TileColorIndex: 0
      m_TileObjectToInstantiateIndex: 65535
      dummyAlignment: 0
      m_AllTileFlags: 1073741825
  - first: {x: 0, y: -9, z: 0}
    second:
      serializedVersion: 2
      m_TileIndex: 90
      m_TileSpriteIndex: 90
      m_TileMatrixIndex: 0
      m_TileColorIndex: 0
      m_TileObjectToInstantiateIndex: 65535
      dummyAlignment: 0
      m_AllTileFlags: 1073741825
  - first: {x: 2, y: -9, z: 0}
    second:
      serializedVersion: 2
      m_TileIndex: 91
      m_TileSpriteIndex: 91
      m_TileMatrixIndex: 0
      m_TileColorIndex: 0
      m_TileObjectToInstantiateIndex: 65535
      dummyAlignment: 0
      m_AllTileFlags: 1073741825
  - first: {x: 3, y: -9, z: 0}
    second:
      serializedVersion: 2
      m_TileIndex: 92
      m_TileSpriteIndex: 92
      m_TileMatrixIndex: 0
      m_TileColorIndex: 0
      m_TileObjectToInstantiateIndex: 65535
      dummyAlignment: 0
      m_AllTileFlags: 1073741825
  - first: {x: 6, y: -9, z: 0}
    second:
      serializedVersion: 2
      m_TileIndex: 93
      m_TileSpriteIndex: 93
      m_TileMatrixIndex: 0
      m_TileColorIndex: 0
      m_TileObjectToInstantiateIndex: 65535
      dummyAlignment: 0
      m_AllTileFlags: 1073741825
  - first: {x: 7, y: -9, z: 0}
    second:
      serializedVersion: 2
      m_TileIndex: 94
      m_TileSpriteIndex: 94
      m_TileMatrixIndex: 0
      m_TileColorIndex: 0
      m_TileObjectToInstantiateIndex: 65535
      dummyAlignment: 0
      m_AllTileFlags: 1073741825
  - first: {x: 8, y: -9, z: 0}
    second:
      serializedVersion: 2
      m_TileIndex: 95
      m_TileSpriteIndex: 95
      m_TileMatrixIndex: 0
      m_TileColorIndex: 0
      m_TileObjectToInstantiateIndex: 65535
      dummyAlignment: 0
      m_AllTileFlags: 1073741825
  - first: {x: 9, y: -9, z: 0}
    second:
      serializedVersion: 2
      m_TileIndex: 96
      m_TileSpriteIndex: 96
      m_TileMatrixIndex: 0
      m_TileColorIndex: 0
      m_TileObjectToInstantiateIndex: 65535
      dummyAlignment: 0
      m_AllTileFlags: 1073741825
  - first: {x: 11, y: -9, z: 0}
    second:
      serializedVersion: 2
      m_TileIndex: 97
      m_TileSpriteIndex: 97
      m_TileMatrixIndex: 0
      m_TileColorIndex: 0
      m_TileObjectToInstantiateIndex: 65535
      dummyAlignment: 0
      m_AllTileFlags: 1073741825
  - first: {x: 12, y: -9, z: 0}
    second:
      serializedVersion: 2
      m_TileIndex: 98
      m_TileSpriteIndex: 98
      m_TileMatrixIndex: 0
      m_TileColorIndex: 0
      m_TileObjectToInstantiateIndex: 65535
      dummyAlignment: 0
      m_AllTileFlags: 1073741825
  - first: {x: 13, y: -9, z: 0}
    second:
      serializedVersion: 2
      m_TileIndex: 99
      m_TileSpriteIndex: 99
      m_TileMatrixIndex: 0
      m_TileColorIndex: 0
      m_TileObjectToInstantiateIndex: 65535
      dummyAlignment: 0
      m_AllTileFlags: 1073741825
  - first: {x: 14, y: -9, z: 0}
    second:
      serializedVersion: 2
      m_TileIndex: 100
      m_TileSpriteIndex: 100
      m_TileMatrixIndex: 0
      m_TileColorIndex: 0
      m_TileObjectToInstantiateIndex: 65535
      dummyAlignment: 0
      m_AllTileFlags: 1073741825
  - first: {x: 6, y: -8, z: 0}
    second:
      serializedVersion: 2
      m_TileIndex: 79
      m_TileSpriteIndex: 79
      m_TileMatrixIndex: 0
      m_TileColorIndex: 0
      m_TileObjectToInstantiateIndex: 65535
      dummyAlignment: 0
      m_AllTileFlags: 1073741825
  - first: {x: 7, y: -8, z: 0}
    second:
      serializedVersion: 2
      m_TileIndex: 80
      m_TileSpriteIndex: 80
      m_TileMatrixIndex: 0
      m_TileColorIndex: 0
      m_TileObjectToInstantiateIndex: 65535
      dummyAlignment: 0
      m_AllTileFlags: 1073741825
  - first: {x: 8, y: -8, z: 0}
    second:
      serializedVersion: 2
      m_TileIndex: 81
      m_TileSpriteIndex: 81
      m_TileMatrixIndex: 0
      m_TileColorIndex: 0
      m_TileObjectToInstantiateIndex: 65535
      dummyAlignment: 0
      m_AllTileFlags: 1073741825
  - first: {x: 9, y: -8, z: 0}
    second:
      serializedVersion: 2
      m_TileIndex: 82
      m_TileSpriteIndex: 82
      m_TileMatrixIndex: 0
      m_TileColorIndex: 0
      m_TileObjectToInstantiateIndex: 65535
      dummyAlignment: 0
      m_AllTileFlags: 1073741825
  - first: {x: 11, y: -8, z: 0}
    second:
      serializedVersion: 2
      m_TileIndex: 83
      m_TileSpriteIndex: 83
      m_TileMatrixIndex: 0
      m_TileColorIndex: 0
      m_TileObjectToInstantiateIndex: 65535
      dummyAlignment: 0
      m_AllTileFlags: 1073741825
  - first: {x: 12, y: -8, z: 0}
    second:
      serializedVersion: 2
      m_TileIndex: 84
      m_TileSpriteIndex: 84
      m_TileMatrixIndex: 0
      m_TileColorIndex: 0
      m_TileObjectToInstantiateIndex: 65535
      dummyAlignment: 0
      m_AllTileFlags: 1073741825
  - first: {x: 13, y: -8, z: 0}
    second:
      serializedVersion: 2
      m_TileIndex: 85
      m_TileSpriteIndex: 85
      m_TileMatrixIndex: 0
      m_TileColorIndex: 0
      m_TileObjectToInstantiateIndex: 65535
      dummyAlignment: 0
      m_AllTileFlags: 1073741825
  - first: {x: 14, y: -8, z: 0}
    second:
      serializedVersion: 2
      m_TileIndex: 86
      m_TileSpriteIndex: 86
      m_TileMatrixIndex: 0
      m_TileColorIndex: 0
      m_TileObjectToInstantiateIndex: 65535
      dummyAlignment: 0
      m_AllTileFlags: 1073741825
  - first: {x: 16, y: -8, z: 0}
    second:
      serializedVersion: 2
      m_TileIndex: 87
      m_TileSpriteIndex: 87
      m_TileMatrixIndex: 0
      m_TileColorIndex: 0
      m_TileObjectToInstantiateIndex: 65535
      dummyAlignment: 0
      m_AllTileFlags: 1073741825
  - first: {x: 17, y: -8, z: 0}
    second:
      serializedVersion: 2
      m_TileIndex: 88
      m_TileSpriteIndex: 88
      m_TileMatrixIndex: 0
      m_TileColorIndex: 0
      m_TileObjectToInstantiateIndex: 65535
      dummyAlignment: 0
      m_AllTileFlags: 1073741825
  - first: {x: 11, y: -7, z: 0}
    second:
      serializedVersion: 2
      m_TileIndex: 72
      m_TileSpriteIndex: 72
      m_TileMatrixIndex: 0
      m_TileColorIndex: 0
      m_TileObjectToInstantiateIndex: 65535
      dummyAlignment: 0
      m_AllTileFlags: 1073741825
  - first: {x: 12, y: -7, z: 0}
    second:
      serializedVersion: 2
      m_TileIndex: 73
      m_TileSpriteIndex: 73
      m_TileMatrixIndex: 0
      m_TileColorIndex: 0
      m_TileObjectToInstantiateIndex: 65535
      dummyAlignment: 0
      m_AllTileFlags: 1073741825
  - first: {x: 13, y: -7, z: 0}
    second:
      serializedVersion: 2
      m_TileIndex: 74
      m_TileSpriteIndex: 74
      m_TileMatrixIndex: 0
      m_TileColorIndex: 0
      m_TileObjectToInstantiateIndex: 65535
      dummyAlignment: 0
      m_AllTileFlags: 1073741825
  - first: {x: 14, y: -7, z: 0}
    second:
      serializedVersion: 2
      m_TileIndex: 75
      m_TileSpriteIndex: 75
      m_TileMatrixIndex: 0
      m_TileColorIndex: 0
      m_TileObjectToInstantiateIndex: 65535
      dummyAlignment: 0
      m_AllTileFlags: 1073741825
  - first: {x: 16, y: -7, z: 0}
    second:
      serializedVersion: 2
      m_TileIndex: 76
      m_TileSpriteIndex: 76
      m_TileMatrixIndex: 0
      m_TileColorIndex: 0
      m_TileObjectToInstantiateIndex: 65535
      dummyAlignment: 0
      m_AllTileFlags: 1073741825
  - first: {x: 17, y: -7, z: 0}
    second:
      serializedVersion: 2
      m_TileIndex: 77
      m_TileSpriteIndex: 77
      m_TileMatrixIndex: 0
      m_TileColorIndex: 0
      m_TileObjectToInstantiateIndex: 65535
      dummyAlignment: 0
      m_AllTileFlags: 1073741825
  - first: {x: 18, y: -7, z: 0}
    second:
      serializedVersion: 2
      m_TileIndex: 78
      m_TileSpriteIndex: 78
      m_TileMatrixIndex: 0
      m_TileColorIndex: 0
      m_TileObjectToInstantiateIndex: 65535
      dummyAlignment: 0
      m_AllTileFlags: 1073741825
  - first: {x: -1, y: -6, z: 0}
    second:
      serializedVersion: 2
      m_TileIndex: 57
      m_TileSpriteIndex: 57
      m_TileMatrixIndex: 0
      m_TileColorIndex: 0
      m_TileObjectToInstantiateIndex: 65535
      dummyAlignment: 0
      m_AllTileFlags: 1073741825
  - first: {x: 0, y: -6, z: 0}
    second:
      serializedVersion: 2
      m_TileIndex: 58
      m_TileSpriteIndex: 58
      m_TileMatrixIndex: 0
      m_TileColorIndex: 0
      m_TileObjectToInstantiateIndex: 65535
      dummyAlignment: 0
      m_AllTileFlags: 1073741825
  - first: {x: 2, y: -6, z: 0}
    second:
      serializedVersion: 2
      m_TileIndex: 59
      m_TileSpriteIndex: 59
      m_TileMatrixIndex: 0
      m_TileColorIndex: 0
      m_TileObjectToInstantiateIndex: 65535
      dummyAlignment: 0
      m_AllTileFlags: 1073741825
  - first: {x: 3, y: -6, z: 0}
    second:
      serializedVersion: 2
      m_TileIndex: 60
      m_TileSpriteIndex: 60
      m_TileMatrixIndex: 0
      m_TileColorIndex: 0
      m_TileObjectToInstantiateIndex: 65535
      dummyAlignment: 0
      m_AllTileFlags: 1073741825
  - first: {x: 6, y: -6, z: 0}
    second:
      serializedVersion: 2
      m_TileIndex: 61
      m_TileSpriteIndex: 61
      m_TileMatrixIndex: 0
      m_TileColorIndex: 0
      m_TileObjectToInstantiateIndex: 65535
      dummyAlignment: 0
      m_AllTileFlags: 1073741825
  - first: {x: 7, y: -6, z: 0}
    second:
      serializedVersion: 2
      m_TileIndex: 62
      m_TileSpriteIndex: 62
      m_TileMatrixIndex: 0
      m_TileColorIndex: 0
      m_TileObjectToInstantiateIndex: 65535
      dummyAlignment: 0
      m_AllTileFlags: 1073741825
  - first: {x: 8, y: -6, z: 0}
    second:
      serializedVersion: 2
      m_TileIndex: 63
      m_TileSpriteIndex: 63
      m_TileMatrixIndex: 0
      m_TileColorIndex: 0
      m_TileObjectToInstantiateIndex: 65535
      dummyAlignment: 0
      m_AllTileFlags: 1073741825
  - first: {x: 9, y: -6, z: 0}
    second:
      serializedVersion: 2
      m_TileIndex: 64
      m_TileSpriteIndex: 64
      m_TileMatrixIndex: 0
      m_TileColorIndex: 0
      m_TileObjectToInstantiateIndex: 65535
      dummyAlignment: 0
      m_AllTileFlags: 1073741825
  - first: {x: 11, y: -6, z: 0}
    second:
      serializedVersion: 2
      m_TileIndex: 65
      m_TileSpriteIndex: 65
      m_TileMatrixIndex: 0
      m_TileColorIndex: 0
      m_TileObjectToInstantiateIndex: 65535
      dummyAlignment: 0
      m_AllTileFlags: 1073741825
  - first: {x: 12, y: -6, z: 0}
    second:
      serializedVersion: 2
      m_TileIndex: 66
      m_TileSpriteIndex: 66
      m_TileMatrixIndex: 0
      m_TileColorIndex: 0
      m_TileObjectToInstantiateIndex: 65535
      dummyAlignment: 0
      m_AllTileFlags: 1073741825
  - first: {x: 13, y: -6, z: 0}
    second:
      serializedVersion: 2
      m_TileIndex: 67
      m_TileSpriteIndex: 67
      m_TileMatrixIndex: 0
      m_TileColorIndex: 0
      m_TileObjectToInstantiateIndex: 65535
      dummyAlignment: 0
      m_AllTileFlags: 1073741825
  - first: {x: 14, y: -6, z: 0}
    second:
      serializedVersion: 2
      m_TileIndex: 68
      m_TileSpriteIndex: 68
      m_TileMatrixIndex: 0
      m_TileColorIndex: 0
      m_TileObjectToInstantiateIndex: 65535
      dummyAlignment: 0
      m_AllTileFlags: 1073741825
  - first: {x: 16, y: -6, z: 0}
    second:
      serializedVersion: 2
      m_TileIndex: 69
      m_TileSpriteIndex: 69
      m_TileMatrixIndex: 0
      m_TileColorIndex: 0
      m_TileObjectToInstantiateIndex: 65535
      dummyAlignment: 0
      m_AllTileFlags: 1073741825
  - first: {x: 17, y: -6, z: 0}
    second:
      serializedVersion: 2
      m_TileIndex: 70
      m_TileSpriteIndex: 70
      m_TileMatrixIndex: 0
      m_TileColorIndex: 0
      m_TileObjectToInstantiateIndex: 65535
      dummyAlignment: 0
      m_AllTileFlags: 1073741825
  - first: {x: 18, y: -6, z: 0}
    second:
      serializedVersion: 2
      m_TileIndex: 71
      m_TileSpriteIndex: 71
      m_TileMatrixIndex: 0
      m_TileColorIndex: 0
      m_TileObjectToInstantiateIndex: 65535
      dummyAlignment: 0
      m_AllTileFlags: 1073741825
  - first: {x: -1, y: -5, z: 0}
    second:
      serializedVersion: 2
      m_TileIndex: 42
      m_TileSpriteIndex: 42
      m_TileMatrixIndex: 0
      m_TileColorIndex: 0
      m_TileObjectToInstantiateIndex: 65535
      dummyAlignment: 0
      m_AllTileFlags: 1073741825
  - first: {x: 0, y: -5, z: 0}
    second:
      serializedVersion: 2
      m_TileIndex: 43
      m_TileSpriteIndex: 43
      m_TileMatrixIndex: 0
      m_TileColorIndex: 0
      m_TileObjectToInstantiateIndex: 65535
      dummyAlignment: 0
      m_AllTileFlags: 1073741825
  - first: {x: 2, y: -5, z: 0}
    second:
      serializedVersion: 2
      m_TileIndex: 44
      m_TileSpriteIndex: 44
      m_TileMatrixIndex: 0
      m_TileColorIndex: 0
      m_TileObjectToInstantiateIndex: 65535
      dummyAlignment: 0
      m_AllTileFlags: 1073741825
  - first: {x: 3, y: -5, z: 0}
    second:
      serializedVersion: 2
      m_TileIndex: 45
      m_TileSpriteIndex: 45
      m_TileMatrixIndex: 0
      m_TileColorIndex: 0
      m_TileObjectToInstantiateIndex: 65535
      dummyAlignment: 0
      m_AllTileFlags: 1073741825
  - first: {x: 6, y: -5, z: 0}
    second:
      serializedVersion: 2
      m_TileIndex: 46
      m_TileSpriteIndex: 46
      m_TileMatrixIndex: 0
      m_TileColorIndex: 0
      m_TileObjectToInstantiateIndex: 65535
      dummyAlignment: 0
      m_AllTileFlags: 1073741825
  - first: {x: 7, y: -5, z: 0}
    second:
      serializedVersion: 2
      m_TileIndex: 47
      m_TileSpriteIndex: 47
      m_TileMatrixIndex: 0
      m_TileColorIndex: 0
      m_TileObjectToInstantiateIndex: 65535
      dummyAlignment: 0
      m_AllTileFlags: 1073741825
  - first: {x: 8, y: -5, z: 0}
    second:
      serializedVersion: 2
      m_TileIndex: 48
      m_TileSpriteIndex: 48
      m_TileMatrixIndex: 0
      m_TileColorIndex: 0
      m_TileObjectToInstantiateIndex: 65535
      dummyAlignment: 0
      m_AllTileFlags: 1073741825
  - first: {x: 9, y: -5, z: 0}
    second:
      serializedVersion: 2
      m_TileIndex: 49
      m_TileSpriteIndex: 49
      m_TileMatrixIndex: 0
      m_TileColorIndex: 0
      m_TileObjectToInstantiateIndex: 65535
      dummyAlignment: 0
      m_AllTileFlags: 1073741825
  - first: {x: 11, y: -5, z: 0}
    second:
      serializedVersion: 2
      m_TileIndex: 50
      m_TileSpriteIndex: 50
      m_TileMatrixIndex: 0
      m_TileColorIndex: 0
      m_TileObjectToInstantiateIndex: 65535
      dummyAlignment: 0
      m_AllTileFlags: 1073741825
  - first: {x: 12, y: -5, z: 0}
    second:
      serializedVersion: 2
      m_TileIndex: 51
      m_TileSpriteIndex: 51
      m_TileMatrixIndex: 0
      m_TileColorIndex: 0
      m_TileObjectToInstantiateIndex: 65535
      dummyAlignment: 0
      m_AllTileFlags: 1073741825
  - first: {x: 13, y: -5, z: 0}
    second:
      serializedVersion: 2
      m_TileIndex: 52
      m_TileSpriteIndex: 52
      m_TileMatrixIndex: 0
      m_TileColorIndex: 0
      m_TileObjectToInstantiateIndex: 65535
      dummyAlignment: 0
      m_AllTileFlags: 1073741825
  - first: {x: 14, y: -5, z: 0}
    second:
      serializedVersion: 2
      m_TileIndex: 53
      m_TileSpriteIndex: 53
      m_TileMatrixIndex: 0
      m_TileColorIndex: 0
      m_TileObjectToInstantiateIndex: 65535
      dummyAlignment: 0
      m_AllTileFlags: 1073741825
  - first: {x: 16, y: -5, z: 0}
    second:
      serializedVersion: 2
      m_TileIndex: 54
      m_TileSpriteIndex: 54
      m_TileMatrixIndex: 0
      m_TileColorIndex: 0
      m_TileObjectToInstantiateIndex: 65535
      dummyAlignment: 0
      m_AllTileFlags: 1073741825
  - first: {x: 17, y: -5, z: 0}
    second:
      serializedVersion: 2
      m_TileIndex: 55
      m_TileSpriteIndex: 55
      m_TileMatrixIndex: 0
      m_TileColorIndex: 0
      m_TileObjectToInstantiateIndex: 65535
      dummyAlignment: 0
      m_AllTileFlags: 1073741825
  - first: {x: 18, y: -5, z: 0}
    second:
      serializedVersion: 2
      m_TileIndex: 56
      m_TileSpriteIndex: 56
      m_TileMatrixIndex: 0
      m_TileColorIndex: 0
      m_TileObjectToInstantiateIndex: 65535
      dummyAlignment: 0
      m_AllTileFlags: 1073741825
  - first: {x: 5, y: -4, z: 0}
    second:
      serializedVersion: 2
      m_TileIndex: 36
      m_TileSpriteIndex: 36
      m_TileMatrixIndex: 0
      m_TileColorIndex: 0
      m_TileObjectToInstantiateIndex: 65535
      dummyAlignment: 0
      m_AllTileFlags: 1073741825
  - first: {x: 6, y: -4, z: 0}
    second:
      serializedVersion: 2
      m_TileIndex: 37
      m_TileSpriteIndex: 37
      m_TileMatrixIndex: 0
      m_TileColorIndex: 0
      m_TileObjectToInstantiateIndex: 65535
      dummyAlignment: 0
      m_AllTileFlags: 1073741825
  - first: {x: 7, y: -4, z: 0}
    second:
      serializedVersion: 2
      m_TileIndex: 38
      m_TileSpriteIndex: 38
      m_TileMatrixIndex: 0
      m_TileColorIndex: 0
      m_TileObjectToInstantiateIndex: 65535
      dummyAlignment: 0
      m_AllTileFlags: 1073741825
  - first: {x: 8, y: -4, z: 0}
    second:
      serializedVersion: 2
      m_TileIndex: 39
      m_TileSpriteIndex: 39
      m_TileMatrixIndex: 0
      m_TileColorIndex: 0
      m_TileObjectToInstantiateIndex: 65535
      dummyAlignment: 0
      m_AllTileFlags: 1073741825
  - first: {x: 9, y: -4, z: 0}
    second:
      serializedVersion: 2
      m_TileIndex: 40
      m_TileSpriteIndex: 40
      m_TileMatrixIndex: 0
      m_TileColorIndex: 0
      m_TileObjectToInstantiateIndex: 65535
      dummyAlignment: 0
      m_AllTileFlags: 1073741825
  - first: {x: 10, y: -4, z: 0}
    second:
      serializedVersion: 2
      m_TileIndex: 41
      m_TileSpriteIndex: 41
      m_TileMatrixIndex: 0
      m_TileColorIndex: 0
      m_TileObjectToInstantiateIndex: 65535
      dummyAlignment: 0
      m_AllTileFlags: 1073741825
  - first: {x: 0, y: -3, z: 0}
    second:
      serializedVersion: 2
      m_TileIndex: 25
      m_TileSpriteIndex: 25
      m_TileMatrixIndex: 0
      m_TileColorIndex: 0
      m_TileObjectToInstantiateIndex: 65535
      dummyAlignment: 0
      m_AllTileFlags: 1073741825
  - first: {x: 2, y: -3, z: 0}
    second:
      serializedVersion: 2
      m_TileIndex: 26
      m_TileSpriteIndex: 26
      m_TileMatrixIndex: 0
      m_TileColorIndex: 0
      m_TileObjectToInstantiateIndex: 65535
      dummyAlignment: 0
      m_AllTileFlags: 1073741825
  - first: {x: 5, y: -3, z: 0}
    second:
      serializedVersion: 2
      m_TileIndex: 27
      m_TileSpriteIndex: 27
      m_TileMatrixIndex: 0
      m_TileColorIndex: 0
      m_TileObjectToInstantiateIndex: 65535
      dummyAlignment: 0
      m_AllTileFlags: 1073741825
  - first: {x: 6, y: -3, z: 0}
    second:
      serializedVersion: 2
      m_TileIndex: 28
      m_TileSpriteIndex: 28
      m_TileMatrixIndex: 0
      m_TileColorIndex: 0
      m_TileObjectToInstantiateIndex: 65535
      dummyAlignment: 0
      m_AllTileFlags: 1073741825
  - first: {x: 7, y: -3, z: 0}
    second:
      serializedVersion: 2
      m_TileIndex: 29
      m_TileSpriteIndex: 29
      m_TileMatrixIndex: 0
      m_TileColorIndex: 0
      m_TileObjectToInstantiateIndex: 65535
      dummyAlignment: 0
      m_AllTileFlags: 1073741825
  - first: {x: 8, y: -3, z: 0}
    second:
      serializedVersion: 2
      m_TileIndex: 30
      m_TileSpriteIndex: 30
      m_TileMatrixIndex: 0
      m_TileColorIndex: 0
      m_TileObjectToInstantiateIndex: 65535
      dummyAlignment: 0
      m_AllTileFlags: 1073741825
  - first: {x: 9, y: -3, z: 0}
    second:
      serializedVersion: 2
      m_TileIndex: 31
      m_TileSpriteIndex: 31
      m_TileMatrixIndex: 0
      m_TileColorIndex: 0
      m_TileObjectToInstantiateIndex: 65535
      dummyAlignment: 0
      m_AllTileFlags: 1073741825
  - first: {x: 10, y: -3, z: 0}
    second:
      serializedVersion: 2
      m_TileIndex: 32
      m_TileSpriteIndex: 32
      m_TileMatrixIndex: 0
      m_TileColorIndex: 0
      m_TileObjectToInstantiateIndex: 65535
      dummyAlignment: 0
      m_AllTileFlags: 1073741825
  - first: {x: 11, y: -3, z: 0}
    second:
      serializedVersion: 2
      m_TileIndex: 33
      m_TileSpriteIndex: 33
      m_TileMatrixIndex: 0
      m_TileColorIndex: 0
      m_TileObjectToInstantiateIndex: 65535
      dummyAlignment: 0
      m_AllTileFlags: 1073741825
  - first: {x: 15, y: -3, z: 0}
    second:
      serializedVersion: 2
      m_TileIndex: 34
      m_TileSpriteIndex: 34
      m_TileMatrixIndex: 0
      m_TileColorIndex: 0
      m_TileObjectToInstantiateIndex: 65535
      dummyAlignment: 0
      m_AllTileFlags: 1073741825
  - first: {x: 17, y: -3, z: 0}
    second:
      serializedVersion: 2
      m_TileIndex: 35
      m_TileSpriteIndex: 35
      m_TileMatrixIndex: 0
      m_TileColorIndex: 0
      m_TileObjectToInstantiateIndex: 65535
      dummyAlignment: 0
      m_AllTileFlags: 1073741825
  - first: {x: 0, y: -2, z: 0}
    second:
      serializedVersion: 2
      m_TileIndex: 15
      m_TileSpriteIndex: 15
      m_TileMatrixIndex: 0
      m_TileColorIndex: 0
      m_TileObjectToInstantiateIndex: 65535
      dummyAlignment: 0
      m_AllTileFlags: 1073741825
  - first: {x: 2, y: -2, z: 0}
    second:
      serializedVersion: 2
      m_TileIndex: 16
      m_TileSpriteIndex: 16
      m_TileMatrixIndex: 0
      m_TileColorIndex: 0
      m_TileObjectToInstantiateIndex: 65535
      dummyAlignment: 0
      m_AllTileFlags: 1073741825
  - first: {x: 6, y: -2, z: 0}
    second:
      serializedVersion: 2
      m_TileIndex: 17
      m_TileSpriteIndex: 17
      m_TileMatrixIndex: 0
      m_TileColorIndex: 0
      m_TileObjectToInstantiateIndex: 65535
      dummyAlignment: 0
      m_AllTileFlags: 1073741825
  - first: {x: 7, y: -2, z: 0}
    second:
      serializedVersion: 2
      m_TileIndex: 18
      m_TileSpriteIndex: 18
      m_TileMatrixIndex: 0
      m_TileColorIndex: 0
      m_TileObjectToInstantiateIndex: 65535
      dummyAlignment: 0
      m_AllTileFlags: 1073741825
  - first: {x: 8, y: -2, z: 0}
    second:
      serializedVersion: 2
      m_TileIndex: 19
      m_TileSpriteIndex: 19
      m_TileMatrixIndex: 0
      m_TileColorIndex: 0
      m_TileObjectToInstantiateIndex: 65535
      dummyAlignment: 0
      m_AllTileFlags: 1073741825
  - first: {x: 9, y: -2, z: 0}
    second:
      serializedVersion: 2
      m_TileIndex: 20
      m_TileSpriteIndex: 20
      m_TileMatrixIndex: 0
      m_TileColorIndex: 0
      m_TileObjectToInstantiateIndex: 65535
      dummyAlignment: 0
      m_AllTileFlags: 1073741825
  - first: {x: 11, y: -2, z: 0}
    second:
      serializedVersion: 2
      m_TileIndex: 21
      m_TileSpriteIndex: 21
      m_TileMatrixIndex: 0
      m_TileColorIndex: 0
      m_TileObjectToInstantiateIndex: 65535
      dummyAlignment: 0
      m_AllTileFlags: 1073741825
  - first: {x: 13, y: -2, z: 0}
    second:
      serializedVersion: 2
      m_TileIndex: 22
      m_TileSpriteIndex: 22
      m_TileMatrixIndex: 0
      m_TileColorIndex: 0
      m_TileObjectToInstantiateIndex: 65535
      dummyAlignment: 0
      m_AllTileFlags: 1073741825
  - first: {x: 15, y: -2, z: 0}
    second:
      serializedVersion: 2
      m_TileIndex: 23
      m_TileSpriteIndex: 23
      m_TileMatrixIndex: 0
      m_TileColorIndex: 0
      m_TileObjectToInstantiateIndex: 65535
      dummyAlignment: 0
      m_AllTileFlags: 1073741825
  - first: {x: 17, y: -2, z: 0}
    second:
      serializedVersion: 2
      m_TileIndex: 24
      m_TileSpriteIndex: 24
      m_TileMatrixIndex: 0
      m_TileColorIndex: 0
      m_TileObjectToInstantiateIndex: 65535
      dummyAlignment: 0
      m_AllTileFlags: 1073741825
  - first: {x: 7, y: -1, z: 0}
    second:
      serializedVersion: 2
      m_TileIndex: 9
      m_TileSpriteIndex: 9
      m_TileMatrixIndex: 0
      m_TileColorIndex: 0
      m_TileObjectToInstantiateIndex: 65535
      dummyAlignment: 0
      m_AllTileFlags: 1073741825
  - first: {x: 8, y: -1, z: 0}
    second:
      serializedVersion: 2
      m_TileIndex: 10
      m_TileSpriteIndex: 10
      m_TileMatrixIndex: 0
      m_TileColorIndex: 0
      m_TileObjectToInstantiateIndex: 65535
      dummyAlignment: 0
      m_AllTileFlags: 1073741825
  - first: {x: 11, y: -1, z: 0}
    second:
      serializedVersion: 2
      m_TileIndex: 11
      m_TileSpriteIndex: 11
      m_TileMatrixIndex: 0
      m_TileColorIndex: 0
      m_TileObjectToInstantiateIndex: 65535
      dummyAlignment: 0
      m_AllTileFlags: 1073741825
  - first: {x: 13, y: -1, z: 0}
    second:
      serializedVersion: 2
      m_TileIndex: 12
      m_TileSpriteIndex: 12
      m_TileMatrixIndex: 0
      m_TileColorIndex: 0
      m_TileObjectToInstantiateIndex: 65535
      dummyAlignment: 0
      m_AllTileFlags: 1073741825
  - first: {x: 15, y: -1, z: 0}
    second:
      serializedVersion: 2
      m_TileIndex: 13
      m_TileSpriteIndex: 13
      m_TileMatrixIndex: 0
      m_TileColorIndex: 0
      m_TileObjectToInstantiateIndex: 65535
      dummyAlignment: 0
      m_AllTileFlags: 1073741825
  - first: {x: 17, y: -1, z: 0}
    second:
      serializedVersion: 2
      m_TileIndex: 14
      m_TileSpriteIndex: 14
      m_TileMatrixIndex: 0
      m_TileColorIndex: 0
      m_TileObjectToInstantiateIndex: 65535
      dummyAlignment: 0
      m_AllTileFlags: 1073741825
  - first: {x: -1, y: 0, z: 0}
    second:
      serializedVersion: 2
      m_TileIndex: 0
      m_TileSpriteIndex: 0
      m_TileMatrixIndex: 0
      m_TileColorIndex: 0
      m_TileObjectToInstantiateIndex: 65535
      dummyAlignment: 0
      m_AllTileFlags: 1073741825
  - first: {x: 2, y: 0, z: 0}
    second:
      serializedVersion: 2
      m_TileIndex: 8
      m_TileSpriteIndex: 8
      m_TileMatrixIndex: 0
      m_TileColorIndex: 0
      m_TileObjectToInstantiateIndex: 65535
      dummyAlignment: 0
      m_AllTileFlags: 1073741825
  - first: {x: 2, y: 1, z: 0}
    second:
      serializedVersion: 2
      m_TileIndex: 1
      m_TileSpriteIndex: 1
      m_TileMatrixIndex: 0
      m_TileColorIndex: 0
      m_TileObjectToInstantiateIndex: 65535
      dummyAlignment: 0
      m_AllTileFlags: 1073741825
  - first: {x: 3, y: 1, z: 0}
    second:
      serializedVersion: 2
      m_TileIndex: 2
      m_TileSpriteIndex: 2
      m_TileMatrixIndex: 0
      m_TileColorIndex: 0
      m_TileObjectToInstantiateIndex: 65535
      dummyAlignment: 0
      m_AllTileFlags: 1073741825
  - first: {x: 4, y: 1, z: 0}
    second:
      serializedVersion: 2
      m_TileIndex: 3
      m_TileSpriteIndex: 3
      m_TileMatrixIndex: 0
      m_TileColorIndex: 0
      m_TileObjectToInstantiateIndex: 65535
      dummyAlignment: 0
      m_AllTileFlags: 1073741825
  - first: {x: 5, y: 1, z: 0}
    second:
      serializedVersion: 2
      m_TileIndex: 4
      m_TileSpriteIndex: 4
      m_TileMatrixIndex: 0
      m_TileColorIndex: 0
      m_TileObjectToInstantiateIndex: 65535
      dummyAlignment: 0
      m_AllTileFlags: 1073741825
  - first: {x: 7, y: 1, z: 0}
    second:
      serializedVersion: 2
      m_TileIndex: 5
      m_TileSpriteIndex: 5
      m_TileMatrixIndex: 0
      m_TileColorIndex: 0
      m_TileObjectToInstantiateIndex: 65535
      dummyAlignment: 0
      m_AllTileFlags: 1073741825
  - first: {x: 9, y: 1, z: 0}
    second:
      serializedVersion: 2
      m_TileIndex: 6
      m_TileSpriteIndex: 6
      m_TileMatrixIndex: 0
      m_TileColorIndex: 0
      m_TileObjectToInstantiateIndex: 65535
      dummyAlignment: 0
      m_AllTileFlags: 1073741825
  - first: {x: 11, y: 1, z: 0}
    second:
      serializedVersion: 2
      m_TileIndex: 7
      m_TileSpriteIndex: 7
      m_TileMatrixIndex: 0
      m_TileColorIndex: 0
      m_TileObjectToInstantiateIndex: 65535
      dummyAlignment: 0
      m_AllTileFlags: 1073741825
  m_AnimatedTiles: {}
  m_TileAssetArray:
  - m_RefCount: 1
    m_Data: {fileID: 11400000, guid: b9d33338ed4fb444990f5aea70bf2855, type: 2}
  - m_RefCount: 1
    m_Data: {fileID: 11400000, guid: b51b47d8708d7314eb5d50964fa9c983, type: 2}
  - m_RefCount: 1
    m_Data: {fileID: 11400000, guid: a2c853441c2def1418c612d02abb72e3, type: 2}
  - m_RefCount: 1
    m_Data: {fileID: 11400000, guid: df051894c672b02488c394214c040bd4, type: 2}
  - m_RefCount: 1
    m_Data: {fileID: 11400000, guid: 4577abe7df47e054fab6fcca77e39d9e, type: 2}
  - m_RefCount: 1
    m_Data: {fileID: 11400000, guid: 11493662010313b4cbdb50f36187f0cb, type: 2}
  - m_RefCount: 1
    m_Data: {fileID: 11400000, guid: 8cd1930455ee94c4fbe39020fbf42438, type: 2}
  - m_RefCount: 1
    m_Data: {fileID: 11400000, guid: 4ee8a8f6d84a85f4bb6d3858463543a3, type: 2}
  - m_RefCount: 1
    m_Data: {fileID: 11400000, guid: 901e6f4107c552b4bab61e88ea238fab, type: 2}
  - m_RefCount: 1
    m_Data: {fileID: 11400000, guid: a2bfe83091b2618418c011cf800e1883, type: 2}
  - m_RefCount: 1
    m_Data: {fileID: 11400000, guid: d98850eef7880e34fb5b42659c36d8e8, type: 2}
  - m_RefCount: 1
    m_Data: {fileID: 11400000, guid: 2b9493bf4c84621468a4c6ab2ebcb2ea, type: 2}
  - m_RefCount: 1
    m_Data: {fileID: 11400000, guid: 131e12fc15f86a64b9d376a9794834e2, type: 2}
  - m_RefCount: 1
    m_Data: {fileID: 11400000, guid: bcc18846c0f13f64385c8b6f240a431c, type: 2}
  - m_RefCount: 1
    m_Data: {fileID: 11400000, guid: 913b983da0cc1ce4a9cb2a3b8ef29c84, type: 2}
  - m_RefCount: 1
    m_Data: {fileID: 11400000, guid: 3433e1fadca38874eb06e62df0664609, type: 2}
  - m_RefCount: 1
    m_Data: {fileID: 11400000, guid: 044e82fa37b03fe40bbb9eabc5679f8e, type: 2}
  - m_RefCount: 1
    m_Data: {fileID: 11400000, guid: ff0c322cf18d1614baa0f801b5831ec9, type: 2}
  - m_RefCount: 1
    m_Data: {fileID: 11400000, guid: e5b9cce6c87c5e94d92871ea7e23db22, type: 2}
  - m_RefCount: 1
    m_Data: {fileID: 11400000, guid: c4fd5472103d5cf44b46c362545fe1fa, type: 2}
  - m_RefCount: 1
    m_Data: {fileID: 11400000, guid: d095d57c8e5ca73408cd7a99fac65d1a, type: 2}
  - m_RefCount: 1
    m_Data: {fileID: 11400000, guid: 5fb05e68949b64c4586a426f8b403258, type: 2}
  - m_RefCount: 1
    m_Data: {fileID: 11400000, guid: c7738022281a5b641a97533419470590, type: 2}
  - m_RefCount: 1
    m_Data: {fileID: 11400000, guid: b8450eacc8b509a459d0c38569dc87ac, type: 2}
  - m_RefCount: 1
    m_Data: {fileID: 11400000, guid: 85e78ea9007821149ae05e132a9e55b5, type: 2}
  - m_RefCount: 1
    m_Data: {fileID: 11400000, guid: 481b955ee107d054b98ee3ccc634ecf8, type: 2}
  - m_RefCount: 1
    m_Data: {fileID: 11400000, guid: 3d8539cb749f5b64a86eab10c4f64e8f, type: 2}
  - m_RefCount: 1
    m_Data: {fileID: 11400000, guid: 1c0be32c7e0d39d4c967e75c94c27289, type: 2}
  - m_RefCount: 1
    m_Data: {fileID: 11400000, guid: 13ceaa106bebcbc4ca3259c0a53c1ba9, type: 2}
  - m_RefCount: 1
    m_Data: {fileID: 11400000, guid: f8876327d1b695a40a8240caf3e493b6, type: 2}
  - m_RefCount: 1
    m_Data: {fileID: 11400000, guid: 67bb43d24c956644ebf35490f7471caf, type: 2}
  - m_RefCount: 1
    m_Data: {fileID: 11400000, guid: 5123e16dda47a534184edbfaa7612ab6, type: 2}
  - m_RefCount: 1
    m_Data: {fileID: 11400000, guid: 593cca588be78d64bb285d12aaace792, type: 2}
  - m_RefCount: 1
    m_Data: {fileID: 11400000, guid: 10ed0d187ba668746b66ee9d3eb88d34, type: 2}
  - m_RefCount: 1
    m_Data: {fileID: 11400000, guid: 37afc0bc5f1cf1f45b616bf81b5cb2ff, type: 2}
  - m_RefCount: 1
    m_Data: {fileID: 11400000, guid: 69d41bfe77e359b44890f4367df7f9ae, type: 2}
  - m_RefCount: 1
    m_Data: {fileID: 11400000, guid: 91c03eced0b5e2443ac81818230db6f3, type: 2}
  - m_RefCount: 1
    m_Data: {fileID: 11400000, guid: 81651353034cf8244b444b819024df26, type: 2}
  - m_RefCount: 1
    m_Data: {fileID: 11400000, guid: c35d4218a88e6b84383d5ee36fdea026, type: 2}
  - m_RefCount: 1
    m_Data: {fileID: 11400000, guid: 2015c5e037629804ca1c996272752d7e, type: 2}
  - m_RefCount: 1
    m_Data: {fileID: 11400000, guid: d5b3831c7b70141408c5c7cfc93ac236, type: 2}
  - m_RefCount: 1
    m_Data: {fileID: 11400000, guid: a200be92f7aa64c43b1017d7674800c0, type: 2}
  - m_RefCount: 1
    m_Data: {fileID: 11400000, guid: f371d3f28c2566e49b46ce6776f7a8b7, type: 2}
  - m_RefCount: 1
    m_Data: {fileID: 11400000, guid: 5eb39d035bbb50642bcd12ec0e45855b, type: 2}
  - m_RefCount: 1
    m_Data: {fileID: 11400000, guid: d5efa8b4d38a3ad4180b253eabffaab8, type: 2}
  - m_RefCount: 1
    m_Data: {fileID: 11400000, guid: ff3cb40f1895a174faeaa019f5bd62f9, type: 2}
  - m_RefCount: 1
    m_Data: {fileID: 11400000, guid: ae9ef68d230ccbd4e870bc580e2a71de, type: 2}
  - m_RefCount: 1
    m_Data: {fileID: 11400000, guid: d735c2be904a74946965d6f744fb619a, type: 2}
  - m_RefCount: 1
    m_Data: {fileID: 11400000, guid: d738f0ff2ef90b7459e4cc722add201d, type: 2}
  - m_RefCount: 1
    m_Data: {fileID: 11400000, guid: 5aa7c23d92582004589a00e2bba9d315, type: 2}
  - m_RefCount: 1
    m_Data: {fileID: 11400000, guid: 948d7db7bf7deef4a844bc87b7024941, type: 2}
  - m_RefCount: 1
    m_Data: {fileID: 11400000, guid: 4694daa28ccddfd48a059b8c6dbf37f4, type: 2}
  - m_RefCount: 1
    m_Data: {fileID: 11400000, guid: 3822e7369e37bfe47afed8a47ec349cb, type: 2}
  - m_RefCount: 1
    m_Data: {fileID: 11400000, guid: e974129c26df3cd479ebfd4be179b90f, type: 2}
  - m_RefCount: 1
    m_Data: {fileID: 11400000, guid: 447fb7759d54a3f4d9269033450b176d, type: 2}
  - m_RefCount: 1
    m_Data: {fileID: 11400000, guid: 719085afecb63e14086d33e4d8545805, type: 2}
  - m_RefCount: 1
    m_Data: {fileID: 11400000, guid: 7b90a2a0a6cd11549b82e19bc81c7ff0, type: 2}
  - m_RefCount: 1
    m_Data: {fileID: 11400000, guid: 1dfef1612e556014896d651a94f35dd3, type: 2}
  - m_RefCount: 1
    m_Data: {fileID: 11400000, guid: 75d02a47ed79f394a9cad39c370a3cb0, type: 2}
  - m_RefCount: 1
    m_Data: {fileID: 11400000, guid: aec002f85cad64f48a135daae6301431, type: 2}
  - m_RefCount: 1
    m_Data: {fileID: 11400000, guid: c05134f33ed25814dafecbf32d7e74e1, type: 2}
  - m_RefCount: 1
    m_Data: {fileID: 11400000, guid: 67e3c08bf9b4c6d49b75a732d16997fb, type: 2}
  - m_RefCount: 1
    m_Data: {fileID: 11400000, guid: addccbfd694fc604d99397c83dafff04, type: 2}
  - m_RefCount: 1
    m_Data: {fileID: 11400000, guid: 8fe50f5649b0d2c4ca4740f82b5683f2, type: 2}
  - m_RefCount: 1
    m_Data: {fileID: 11400000, guid: 9e7f523cd72af7c47b44dd68015d4531, type: 2}
  - m_RefCount: 1
    m_Data: {fileID: 11400000, guid: cb314f34931e4e74783fc53f6d9069ce, type: 2}
  - m_RefCount: 1
    m_Data: {fileID: 11400000, guid: a06ff872bbe8c754e8bfc92aabae596b, type: 2}
  - m_RefCount: 1
    m_Data: {fileID: 11400000, guid: 1f5ee0a10bff42c409147fbcf873a72a, type: 2}
  - m_RefCount: 1
    m_Data: {fileID: 11400000, guid: a60b8931941fe704ea0a023ca6d927d6, type: 2}
  - m_RefCount: 1
    m_Data: {fileID: 11400000, guid: 3f3053342f54bec46912cfb19382d797, type: 2}
  - m_RefCount: 1
    m_Data: {fileID: 11400000, guid: 014fc89d78d3870498852d7781e53920, type: 2}
  - m_RefCount: 1
    m_Data: {fileID: 11400000, guid: 867973e49f65e2144980eebd9b7f5cf6, type: 2}
  - m_RefCount: 1
    m_Data: {fileID: 11400000, guid: ab99e7f57ac0cc046a47d926df406a48, type: 2}
  - m_RefCount: 1
    m_Data: {fileID: 11400000, guid: dbe9334544fa2d14abfd5e4676cee37a, type: 2}
  - m_RefCount: 1
    m_Data: {fileID: 11400000, guid: 4d638586c2014c24f9bb69cd958795d3, type: 2}
  - m_RefCount: 1
    m_Data: {fileID: 11400000, guid: 39a9809a48c68654a8f543a497b533cc, type: 2}
  - m_RefCount: 1
    m_Data: {fileID: 11400000, guid: e9739aa9055585a449d3f7c7e5fee521, type: 2}
  - m_RefCount: 1
    m_Data: {fileID: 11400000, guid: a920c25d33d37d64981e3f0b9cc3ec24, type: 2}
  - m_RefCount: 1
    m_Data: {fileID: 11400000, guid: ff1e5f4d41c396e49ba730e3cf2125aa, type: 2}
  - m_RefCount: 1
    m_Data: {fileID: 11400000, guid: fea675a549f11d34086369d6cc2e5d99, type: 2}
  - m_RefCount: 1
    m_Data: {fileID: 11400000, guid: a7553580b1f3ca646a222a5a0ebcb366, type: 2}
  - m_RefCount: 1
    m_Data: {fileID: 11400000, guid: 86469b3a7c071fd4988fe04cb3086b6d, type: 2}
  - m_RefCount: 1
    m_Data: {fileID: 11400000, guid: 3d4b68a16249bf4408d74c7b8681f941, type: 2}
  - m_RefCount: 1
    m_Data: {fileID: 11400000, guid: 3b4c25bdb1a2e004085bd23ef27c3582, type: 2}
  - m_RefCount: 1
    m_Data: {fileID: 11400000, guid: 2d76cd041cfa207489577aa356885365, type: 2}
  - m_RefCount: 1
    m_Data: {fileID: 11400000, guid: 80f70bc86382fe6439b44d5016f6e71a, type: 2}
  - m_RefCount: 1
    m_Data: {fileID: 11400000, guid: eb2d69e4c1fc47a4290578c1fb30e73e, type: 2}
  - m_RefCount: 1
    m_Data: {fileID: 11400000, guid: 8c10040de37b4e04db0ec1f2f68a3f5c, type: 2}
  - m_RefCount: 1
    m_Data: {fileID: 11400000, guid: 37ad4a82604f8b843a2cb9ec5d67996d, type: 2}
  - m_RefCount: 1
    m_Data: {fileID: 11400000, guid: 1e9df29b7492fab489dbf40db35e0768, type: 2}
  - m_RefCount: 1
    m_Data: {fileID: 11400000, guid: 383cd9edd08b1fd4b88031c8ef3f7161, type: 2}
  - m_RefCount: 1
    m_Data: {fileID: 11400000, guid: c0a01e493cb7de9429cceaf8df44666d, type: 2}
  - m_RefCount: 1
    m_Data: {fileID: 11400000, guid: 057eaddb6ee7622419f55fa0097c9337, type: 2}
  - m_RefCount: 1
    m_Data: {fileID: 11400000, guid: f4dcd39a87369a04fae7b174f5790fb6, type: 2}
  - m_RefCount: 1
    m_Data: {fileID: 11400000, guid: bd34e37f4253e4a45b71ca8dad208d26, type: 2}
  - m_RefCount: 1
    m_Data: {fileID: 11400000, guid: 1b79a2471ce2d4f4f84f56dc4cf2536a, type: 2}
  - m_RefCount: 1
    m_Data: {fileID: 11400000, guid: 25be43cf96d46e14da4e8363bfbeb3d5, type: 2}
  - m_RefCount: 1
    m_Data: {fileID: 11400000, guid: 6b320036734fe9f4394cae567a598572, type: 2}
  - m_RefCount: 1
    m_Data: {fileID: 11400000, guid: d814b53b0f19e714488dcb82b3a27175, type: 2}
  - m_RefCount: 1
    m_Data: {fileID: 11400000, guid: b635d7ed8b036164a895178f1a37804b, type: 2}
  - m_RefCount: 1
    m_Data: {fileID: 11400000, guid: d8f220168902db94ebee10a5bea6caeb, type: 2}
  - m_RefCount: 1
    m_Data: {fileID: 11400000, guid: 4cb9fe07bae2b0349ac0cd16beab8b96, type: 2}
  - m_RefCount: 1
    m_Data: {fileID: 11400000, guid: bbb29f6ff2fcbc0449f83e3ea6e90532, type: 2}
  - m_RefCount: 1
    m_Data: {fileID: 11400000, guid: d8a8e4d5717ae884789b99ecf9f64ecc, type: 2}
  - m_RefCount: 1
    m_Data: {fileID: 11400000, guid: 0a2c5ed8db76502409106c259fe473b0, type: 2}
  - m_RefCount: 1
    m_Data: {fileID: 11400000, guid: 6d20df67632544d4bbe618635804266c, type: 2}
  - m_RefCount: 1
    m_Data: {fileID: 11400000, guid: 92757efd7bc3502429500ede091b4f06, type: 2}
  - m_RefCount: 1
    m_Data: {fileID: 11400000, guid: 7a941c578d4c8664fb02c972db53cffd, type: 2}
  - m_RefCount: 1
    m_Data: {fileID: 11400000, guid: 04647d69aed7cd240b5af6d5d2c3e2ae, type: 2}
  m_TileSpriteArray:
  - m_RefCount: 1
    m_Data: {fileID: 21300000, guid: 2eeb0d4e8888f48459040781a511455e, type: 3}
  - m_RefCount: 1
    m_Data: {fileID: 21300002, guid: 2eeb0d4e8888f48459040781a511455e, type: 3}
  - m_RefCount: 1
    m_Data: {fileID: 21300004, guid: 2eeb0d4e8888f48459040781a511455e, type: 3}
  - m_RefCount: 1
    m_Data: {fileID: 21300006, guid: 2eeb0d4e8888f48459040781a511455e, type: 3}
  - m_RefCount: 1
    m_Data: {fileID: 21300008, guid: 2eeb0d4e8888f48459040781a511455e, type: 3}
  - m_RefCount: 1
    m_Data: {fileID: 21300010, guid: 2eeb0d4e8888f48459040781a511455e, type: 3}
  - m_RefCount: 1
    m_Data: {fileID: 21300012, guid: 2eeb0d4e8888f48459040781a511455e, type: 3}
  - m_RefCount: 1
    m_Data: {fileID: 21300014, guid: 2eeb0d4e8888f48459040781a511455e, type: 3}
  - m_RefCount: 1
    m_Data: {fileID: 21300016, guid: 2eeb0d4e8888f48459040781a511455e, type: 3}
  - m_RefCount: 1
    m_Data: {fileID: 21300018, guid: 2eeb0d4e8888f48459040781a511455e, type: 3}
  - m_RefCount: 1
    m_Data: {fileID: 21300020, guid: 2eeb0d4e8888f48459040781a511455e, type: 3}
  - m_RefCount: 1
    m_Data: {fileID: 21300022, guid: 2eeb0d4e8888f48459040781a511455e, type: 3}
  - m_RefCount: 1
    m_Data: {fileID: 21300024, guid: 2eeb0d4e8888f48459040781a511455e, type: 3}
  - m_RefCount: 1
    m_Data: {fileID: 21300026, guid: 2eeb0d4e8888f48459040781a511455e, type: 3}
  - m_RefCount: 1
    m_Data: {fileID: 21300028, guid: 2eeb0d4e8888f48459040781a511455e, type: 3}
  - m_RefCount: 1
    m_Data: {fileID: 21300030, guid: 2eeb0d4e8888f48459040781a511455e, type: 3}
  - m_RefCount: 1
    m_Data: {fileID: 21300032, guid: 2eeb0d4e8888f48459040781a511455e, type: 3}
  - m_RefCount: 1
    m_Data: {fileID: 21300034, guid: 2eeb0d4e8888f48459040781a511455e, type: 3}
  - m_RefCount: 1
    m_Data: {fileID: 21300036, guid: 2eeb0d4e8888f48459040781a511455e, type: 3}
  - m_RefCount: 1
    m_Data: {fileID: 21300038, guid: 2eeb0d4e8888f48459040781a511455e, type: 3}
  - m_RefCount: 1
    m_Data: {fileID: 21300040, guid: 2eeb0d4e8888f48459040781a511455e, type: 3}
  - m_RefCount: 1
    m_Data: {fileID: 21300042, guid: 2eeb0d4e8888f48459040781a511455e, type: 3}
  - m_RefCount: 1
    m_Data: {fileID: 21300044, guid: 2eeb0d4e8888f48459040781a511455e, type: 3}
  - m_RefCount: 1
    m_Data: {fileID: 21300046, guid: 2eeb0d4e8888f48459040781a511455e, type: 3}
  - m_RefCount: 1
    m_Data: {fileID: 21300048, guid: 2eeb0d4e8888f48459040781a511455e, type: 3}
  - m_RefCount: 1
    m_Data: {fileID: 21300050, guid: 2eeb0d4e8888f48459040781a511455e, type: 3}
  - m_RefCount: 1
    m_Data: {fileID: 21300052, guid: 2eeb0d4e8888f48459040781a511455e, type: 3}
  - m_RefCount: 1
    m_Data: {fileID: 21300054, guid: 2eeb0d4e8888f48459040781a511455e, type: 3}
  - m_RefCount: 1
    m_Data: {fileID: 21300056, guid: 2eeb0d4e8888f48459040781a511455e, type: 3}
  - m_RefCount: 1
    m_Data: {fileID: 21300058, guid: 2eeb0d4e8888f48459040781a511455e, type: 3}
  - m_RefCount: 1
    m_Data: {fileID: 21300060, guid: 2eeb0d4e8888f48459040781a511455e, type: 3}
  - m_RefCount: 1
    m_Data: {fileID: 21300062, guid: 2eeb0d4e8888f48459040781a511455e, type: 3}
  - m_RefCount: 1
    m_Data: {fileID: 21300064, guid: 2eeb0d4e8888f48459040781a511455e, type: 3}
  - m_RefCount: 1
    m_Data: {fileID: 21300066, guid: 2eeb0d4e8888f48459040781a511455e, type: 3}
  - m_RefCount: 1
    m_Data: {fileID: 21300068, guid: 2eeb0d4e8888f48459040781a511455e, type: 3}
  - m_RefCount: 1
    m_Data: {fileID: 21300070, guid: 2eeb0d4e8888f48459040781a511455e, type: 3}
  - m_RefCount: 1
    m_Data: {fileID: 21300072, guid: 2eeb0d4e8888f48459040781a511455e, type: 3}
  - m_RefCount: 1
    m_Data: {fileID: 21300074, guid: 2eeb0d4e8888f48459040781a511455e, type: 3}
  - m_RefCount: 1
    m_Data: {fileID: 21300076, guid: 2eeb0d4e8888f48459040781a511455e, type: 3}
  - m_RefCount: 1
    m_Data: {fileID: 21300078, guid: 2eeb0d4e8888f48459040781a511455e, type: 3}
  - m_RefCount: 1
    m_Data: {fileID: 21300080, guid: 2eeb0d4e8888f48459040781a511455e, type: 3}
  - m_RefCount: 1
    m_Data: {fileID: 21300082, guid: 2eeb0d4e8888f48459040781a511455e, type: 3}
  - m_RefCount: 1
    m_Data: {fileID: 21300084, guid: 2eeb0d4e8888f48459040781a511455e, type: 3}
  - m_RefCount: 1
    m_Data: {fileID: 21300086, guid: 2eeb0d4e8888f48459040781a511455e, type: 3}
  - m_RefCount: 1
    m_Data: {fileID: 21300088, guid: 2eeb0d4e8888f48459040781a511455e, type: 3}
  - m_RefCount: 1
    m_Data: {fileID: 21300090, guid: 2eeb0d4e8888f48459040781a511455e, type: 3}
  - m_RefCount: 1
    m_Data: {fileID: 21300092, guid: 2eeb0d4e8888f48459040781a511455e, type: 3}
  - m_RefCount: 1
    m_Data: {fileID: 21300094, guid: 2eeb0d4e8888f48459040781a511455e, type: 3}
  - m_RefCount: 1
    m_Data: {fileID: 21300096, guid: 2eeb0d4e8888f48459040781a511455e, type: 3}
  - m_RefCount: 1
    m_Data: {fileID: 21300098, guid: 2eeb0d4e8888f48459040781a511455e, type: 3}
  - m_RefCount: 1
    m_Data: {fileID: 21300100, guid: 2eeb0d4e8888f48459040781a511455e, type: 3}
  - m_RefCount: 1
    m_Data: {fileID: 21300102, guid: 2eeb0d4e8888f48459040781a511455e, type: 3}
  - m_RefCount: 1
    m_Data: {fileID: 21300104, guid: 2eeb0d4e8888f48459040781a511455e, type: 3}
  - m_RefCount: 1
    m_Data: {fileID: 21300106, guid: 2eeb0d4e8888f48459040781a511455e, type: 3}
  - m_RefCount: 1
    m_Data: {fileID: 21300108, guid: 2eeb0d4e8888f48459040781a511455e, type: 3}
  - m_RefCount: 1
    m_Data: {fileID: 21300110, guid: 2eeb0d4e8888f48459040781a511455e, type: 3}
  - m_RefCount: 1
    m_Data: {fileID: 21300112, guid: 2eeb0d4e8888f48459040781a511455e, type: 3}
  - m_RefCount: 1
    m_Data: {fileID: 21300114, guid: 2eeb0d4e8888f48459040781a511455e, type: 3}
  - m_RefCount: 1
    m_Data: {fileID: 21300116, guid: 2eeb0d4e8888f48459040781a511455e, type: 3}
  - m_RefCount: 1
    m_Data: {fileID: 21300118, guid: 2eeb0d4e8888f48459040781a511455e, type: 3}
  - m_RefCount: 1
    m_Data: {fileID: 21300120, guid: 2eeb0d4e8888f48459040781a511455e, type: 3}
  - m_RefCount: 1
    m_Data: {fileID: 21300122, guid: 2eeb0d4e8888f48459040781a511455e, type: 3}
  - m_RefCount: 1
    m_Data: {fileID: 21300124, guid: 2eeb0d4e8888f48459040781a511455e, type: 3}
  - m_RefCount: 1
    m_Data: {fileID: 21300126, guid: 2eeb0d4e8888f48459040781a511455e, type: 3}
  - m_RefCount: 1
    m_Data: {fileID: 21300128, guid: 2eeb0d4e8888f48459040781a511455e, type: 3}
  - m_RefCount: 1
    m_Data: {fileID: 21300130, guid: 2eeb0d4e8888f48459040781a511455e, type: 3}
  - m_RefCount: 1
    m_Data: {fileID: 21300132, guid: 2eeb0d4e8888f48459040781a511455e, type: 3}
  - m_RefCount: 1
    m_Data: {fileID: 21300134, guid: 2eeb0d4e8888f48459040781a511455e, type: 3}
  - m_RefCount: 1
    m_Data: {fileID: 21300136, guid: 2eeb0d4e8888f48459040781a511455e, type: 3}
  - m_RefCount: 1
    m_Data: {fileID: 21300138, guid: 2eeb0d4e8888f48459040781a511455e, type: 3}
  - m_RefCount: 1
    m_Data: {fileID: 21300140, guid: 2eeb0d4e8888f48459040781a511455e, type: 3}
  - m_RefCount: 1
    m_Data: {fileID: 21300142, guid: 2eeb0d4e8888f48459040781a511455e, type: 3}
  - m_RefCount: 1
    m_Data: {fileID: 21300144, guid: 2eeb0d4e8888f48459040781a511455e, type: 3}
  - m_RefCount: 1
    m_Data: {fileID: 21300146, guid: 2eeb0d4e8888f48459040781a511455e, type: 3}
  - m_RefCount: 1
    m_Data: {fileID: 21300148, guid: 2eeb0d4e8888f48459040781a511455e, type: 3}
  - m_RefCount: 1
    m_Data: {fileID: 21300150, guid: 2eeb0d4e8888f48459040781a511455e, type: 3}
  - m_RefCount: 1
    m_Data: {fileID: 21300152, guid: 2eeb0d4e8888f48459040781a511455e, type: 3}
  - m_RefCount: 1
    m_Data: {fileID: 21300154, guid: 2eeb0d4e8888f48459040781a511455e, type: 3}
  - m_RefCount: 1
    m_Data: {fileID: 21300156, guid: 2eeb0d4e8888f48459040781a511455e, type: 3}
  - m_RefCount: 1
    m_Data: {fileID: 21300158, guid: 2eeb0d4e8888f48459040781a511455e, type: 3}
  - m_RefCount: 1
    m_Data: {fileID: 21300160, guid: 2eeb0d4e8888f48459040781a511455e, type: 3}
  - m_RefCount: 1
    m_Data: {fileID: 21300162, guid: 2eeb0d4e8888f48459040781a511455e, type: 3}
  - m_RefCount: 1
    m_Data: {fileID: 21300164, guid: 2eeb0d4e8888f48459040781a511455e, type: 3}
  - m_RefCount: 1
    m_Data: {fileID: 21300166, guid: 2eeb0d4e8888f48459040781a511455e, type: 3}
  - m_RefCount: 1
    m_Data: {fileID: 21300168, guid: 2eeb0d4e8888f48459040781a511455e, type: 3}
  - m_RefCount: 1
    m_Data: {fileID: 21300170, guid: 2eeb0d4e8888f48459040781a511455e, type: 3}
  - m_RefCount: 1
    m_Data: {fileID: 21300172, guid: 2eeb0d4e8888f48459040781a511455e, type: 3}
  - m_RefCount: 1
    m_Data: {fileID: 21300174, guid: 2eeb0d4e8888f48459040781a511455e, type: 3}
  - m_RefCount: 1
    m_Data: {fileID: 21300176, guid: 2eeb0d4e8888f48459040781a511455e, type: 3}
  - m_RefCount: 1
    m_Data: {fileID: 21300178, guid: 2eeb0d4e8888f48459040781a511455e, type: 3}
  - m_RefCount: 1
    m_Data: {fileID: 21300180, guid: 2eeb0d4e8888f48459040781a511455e, type: 3}
  - m_RefCount: 1
    m_Data: {fileID: 21300182, guid: 2eeb0d4e8888f48459040781a511455e, type: 3}
  - m_RefCount: 1
    m_Data: {fileID: 21300184, guid: 2eeb0d4e8888f48459040781a511455e, type: 3}
  - m_RefCount: 1
    m_Data: {fileID: 21300186, guid: 2eeb0d4e8888f48459040781a511455e, type: 3}
  - m_RefCount: 1
    m_Data: {fileID: 21300188, guid: 2eeb0d4e8888f48459040781a511455e, type: 3}
  - m_RefCount: 1
    m_Data: {fileID: 21300190, guid: 2eeb0d4e8888f48459040781a511455e, type: 3}
  - m_RefCount: 1
    m_Data: {fileID: 21300192, guid: 2eeb0d4e8888f48459040781a511455e, type: 3}
  - m_RefCount: 1
    m_Data: {fileID: 21300194, guid: 2eeb0d4e8888f48459040781a511455e, type: 3}
  - m_RefCount: 1
    m_Data: {fileID: 21300196, guid: 2eeb0d4e8888f48459040781a511455e, type: 3}
  - m_RefCount: 1
    m_Data: {fileID: 21300198, guid: 2eeb0d4e8888f48459040781a511455e, type: 3}
  - m_RefCount: 1
    m_Data: {fileID: 21300200, guid: 2eeb0d4e8888f48459040781a511455e, type: 3}
  - m_RefCount: 1
    m_Data: {fileID: 21300202, guid: 2eeb0d4e8888f48459040781a511455e, type: 3}
  - m_RefCount: 1
    m_Data: {fileID: 21300204, guid: 2eeb0d4e8888f48459040781a511455e, type: 3}
  - m_RefCount: 1
    m_Data: {fileID: 21300206, guid: 2eeb0d4e8888f48459040781a511455e, type: 3}
  - m_RefCount: 1
    m_Data: {fileID: 21300208, guid: 2eeb0d4e8888f48459040781a511455e, type: 3}
  - m_RefCount: 1
    m_Data: {fileID: 21300210, guid: 2eeb0d4e8888f48459040781a511455e, type: 3}
  - m_RefCount: 1
    m_Data: {fileID: 21300212, guid: 2eeb0d4e8888f48459040781a511455e, type: 3}
  - m_RefCount: 1
    m_Data: {fileID: 21300214, guid: 2eeb0d4e8888f48459040781a511455e, type: 3}
  - m_RefCount: 1
    m_Data: {fileID: 21300216, guid: 2eeb0d4e8888f48459040781a511455e, type: 3}
  m_TileMatrixArray:
  - m_RefCount: 109
    m_Data:
      e00: 1
      e01: 0
      e02: 0
      e03: 0
      e10: 0
      e11: 1
      e12: 0
      e13: 0
      e20: 0
      e21: 0
      e22: 1
      e23: 0
      e30: 0
      e31: 0
      e32: 0
      e33: 1
  m_TileColorArray:
  - m_RefCount: 109
    m_Data: {r: 1, g: 1, b: 1, a: 1}
  m_TileObjectToInstantiateArray: []
  m_AnimationFrameRate: 1
  m_Color: {r: 1, g: 1, b: 1, a: 1}
  m_Origin: {x: -1, y: -10, z: 0}
  m_Size: {x: 20, y: 12, z: 1}
  m_TileAnchor: {x: 0.5, y: 0.5, z: 0}
  m_TileOrientation: 0
  m_TileOrientationMatrix:
    e00: 1
    e01: 0
    e02: 0
    e03: 0
    e10: 0
    e11: 1
    e12: 0
    e13: 0
    e20: 0
    e21: 0
    e22: 1
    e23: 0
    e30: 0
    e31: 0
    e32: 0
    e33: 1
--- !u!483693784 &2058400369332980304
TilemapRenderer:
  m_ObjectHideFlags: 0
  m_CorrespondingSourceObject: {fileID: 0}
  m_PrefabInstance: {fileID: 0}
  m_PrefabAsset: {fileID: 0}
  m_GameObject: {fileID: 3624777791393869251}
  m_Enabled: 1
  m_CastShadows: 0
  m_ReceiveShadows: 0
  m_DynamicOccludee: 0
  m_StaticShadowCaster: 0
  m_MotionVectors: 1
  m_LightProbeUsage: 0
  m_ReflectionProbeUsage: 0
  m_RayTracingMode: 0
  m_RayTraceProcedural: 0
  m_RenderingLayerMask: 1
  m_RendererPriority: 0
  m_Materials:
  - {fileID: 10754, guid: 0000000000000000f000000000000000, type: 0}
  m_StaticBatchInfo:
    firstSubMesh: 0
    subMeshCount: 0
  m_StaticBatchRoot: {fileID: 0}
  m_ProbeAnchor: {fileID: 0}
  m_LightProbeVolumeOverride: {fileID: 0}
  m_ScaleInLightmap: 1
  m_ReceiveGI: 1
  m_PreserveUVs: 0
  m_IgnoreNormalsForChartDetection: 0
  m_ImportantGI: 0
  m_StitchLightmapSeams: 1
  m_SelectedEditorRenderState: 0
  m_MinimumChartSize: 4
  m_AutoUVMaxDistance: 0.5
  m_AutoUVMaxAngle: 89
  m_LightmapParameters: {fileID: 0}
  m_SortingLayerID: 0
  m_SortingLayer: 0
  m_SortingOrder: 0
  m_ChunkSize: {x: 32, y: 32, z: 32}
  m_ChunkCullingBounds: {x: 0, y: 0, z: 0}
  m_MaxChunkCount: 16
  m_MaxFrameAge: 16
  m_SortOrder: 0
  m_Mode: 0
  m_DetectChunkCullingBounds: 0
  m_MaskInteraction: 0
--- !u!114 &906723050967433117
MonoBehaviour:
  m_ObjectHideFlags: 0
  m_CorrespondingSourceObject: {fileID: 0}
  m_PrefabInstance: {fileID: 0}
  m_PrefabAsset: {fileID: 0}
  m_GameObject: {fileID: 0}
  m_Enabled: 1
  m_EditorHideFlags: 0
  m_Script: {fileID: 12395, guid: 0000000000000000e000000000000000, type: 0}
  m_Name: Palette Settings
  m_EditorClassIdentifier: 
  cellSizing: 0
  m_TransparencySortMode: 0
  m_TransparencySortAxis: {x: 0, y: 0, z: 1}
