Library\Bee\artifacts\mvdfrm\Unity.2D.Common.Editor.ref.dll_BD59A5CBF9D52B22.mvfrm
Library\Bee\artifacts\mvdfrm\Unity.2D.Common.Runtime.ref.dll_77798F371487C3E9.mvfrm
Library\Bee\artifacts\mvdfrm\Unity.2D.Path.Editor.ref.dll_583975DB52C81A78.mvfrm
Library\Bee\artifacts\mvdfrm\Unity.2D.SpriteShape.Runtime.ref.dll_BCD600250821B9C8.mvfrm
Library\Bee\artifacts\mvdfrm\Unity.InternalAPIEditorBridge.001.ref.dll_C275F416F58A86FE.mvfrm
Library\Bee\artifacts\mvdfrm\UnityEditor.TestRunner.ref.dll_193EC4CE382CBFB3.mvfrm
Library\Bee\artifacts\mvdfrm\UnityEditor.UI.ref.dll_4C98D3F7040CD4F5.mvfrm
Library\Bee\artifacts\mvdfrm\UnityEngine.TestRunner.ref.dll_E55D0F7C63F01D9E.mvfrm
Library\Bee\artifacts\mvdfrm\UnityEngine.UI.ref.dll_08FEAA520A2EFD60.mvfrm
Library\Bee\artifacts\mvdfrm\Unity.Burst.Cecil.dll_95612A3C9F7CC251.mvfrm
Library\Bee\artifacts\mvdfrm\Unity.Burst.Cecil.Mdb.dll_49618FDAFC1791CE.mvfrm
Library\Bee\artifacts\mvdfrm\Unity.Burst.Cecil.Pdb.dll_60B4084A7ACC9351.mvfrm
Library\Bee\artifacts\mvdfrm\Unity.Burst.Cecil.Rocks.dll_BD79A69ABC031791.mvfrm
Library\Bee\artifacts\mvdfrm\Unity.Burst.Unsafe.dll_144C9B90B0BA1FF2.mvfrm
Library\Bee\artifacts\mvdfrm\Unity.Plastic.Antlr3.Runtime.dll_10A623296D7B2EBE.mvfrm
Library\Bee\artifacts\mvdfrm\Unity.Plastic.Newtonsoft.Json.dll_93203081E7FEEB97.mvfrm
Library\Bee\artifacts\mvdfrm\Unity.VisualScripting.IonicZip.dll_5F56205BB19EF18A.mvfrm
Library\Bee\artifacts\mvdfrm\Unity.VisualScripting.YamlDotNet.dll_7EB456783F62F012.mvfrm
Library\Bee\artifacts\mvdfrm\Unity.VisualScripting.TextureAssets.dll_15D27FCC00304E0A.mvfrm
Library\Bee\artifacts\mvdfrm\Unity.VisualScripting.Antlr3.Runtime.dll_30217D59702C0031.mvfrm
Library\Bee\artifacts\mvdfrm\UnityEditor.Graphs.dll_B8085B03AF38B054.mvfrm
Library\Bee\artifacts\mvdfrm\UnityEditor.CoreModule.dll_540128CD7308C822.mvfrm
Library\Bee\artifacts\mvdfrm\UnityEditor.DeviceSimulatorModule.dll_AA09A2FDEF6D2D3F.mvfrm
Library\Bee\artifacts\mvdfrm\UnityEditor.DiagnosticsModule.dll_3163E0B9256D77CD.mvfrm
Library\Bee\artifacts\mvdfrm\UnityEditor.dll_94D996CEE002A7D3.mvfrm
Library\Bee\artifacts\mvdfrm\UnityEditor.GraphViewModule.dll_82233F8E1F862404.mvfrm
Library\Bee\artifacts\mvdfrm\UnityEditor.PackageManagerUIModule.dll_97E10EE00E883EFE.mvfrm
Library\Bee\artifacts\mvdfrm\UnityEditor.QuickSearchModule.dll_BC7361C67E447426.mvfrm
Library\Bee\artifacts\mvdfrm\UnityEditor.SceneTemplateModule.dll_9AF4D3DD94145367.mvfrm
Library\Bee\artifacts\mvdfrm\UnityEditor.TextCoreFontEngineModule.dll_9C7EDDC87DD0CB60.mvfrm
Library\Bee\artifacts\mvdfrm\UnityEditor.TextCoreTextEngineModule.dll_E467143A0D54847E.mvfrm
Library\Bee\artifacts\mvdfrm\UnityEditor.UIBuilderModule.dll_D6ABECAA923E9D38.mvfrm
Library\Bee\artifacts\mvdfrm\UnityEditor.UIElementsModule.dll_831F51E79150581E.mvfrm
Library\Bee\artifacts\mvdfrm\UnityEditor.UIElementsSamplesModule.dll_266ABCD1D9D5F52F.mvfrm
Library\Bee\artifacts\mvdfrm\UnityEditor.UIServiceModule.dll_0F9DFE0D7B75ED52.mvfrm
Library\Bee\artifacts\mvdfrm\UnityEditor.UnityConnectModule.dll_9E70BD2E5F5F87D8.mvfrm
Library\Bee\artifacts\mvdfrm\UnityEngine.AccessibilityModule.dll_CD9A3F74948A7B04.mvfrm
Library\Bee\artifacts\mvdfrm\UnityEngine.AIModule.dll_8930E2DE90E3E636.mvfrm
Library\Bee\artifacts\mvdfrm\UnityEngine.AndroidJNIModule.dll_01683ABADA6FC6F4.mvfrm
Library\Bee\artifacts\mvdfrm\UnityEngine.AnimationModule.dll_50A8BBB6F9E2F8AA.mvfrm
Library\Bee\artifacts\mvdfrm\UnityEngine.ARModule.dll_42A3A7E1EE0144FF.mvfrm
Library\Bee\artifacts\mvdfrm\UnityEngine.AssetBundleModule.dll_005C94B7E0AB2918.mvfrm
Library\Bee\artifacts\mvdfrm\UnityEngine.AudioModule.dll_289DD12977971F1C.mvfrm
Library\Bee\artifacts\mvdfrm\UnityEngine.ClothModule.dll_8F862E2451B3FE00.mvfrm
Library\Bee\artifacts\mvdfrm\UnityEngine.ClusterInputModule.dll_1E0D324410E75A9E.mvfrm
Library\Bee\artifacts\mvdfrm\UnityEngine.ClusterRendererModule.dll_AFB6656F5F283AC3.mvfrm
Library\Bee\artifacts\mvdfrm\UnityEngine.CoreModule.dll_7721FC201B0E334D.mvfrm
Library\Bee\artifacts\mvdfrm\UnityEngine.CrashReportingModule.dll_E26CB487F3695905.mvfrm
Library\Bee\artifacts\mvdfrm\UnityEngine.DirectorModule.dll_58636025A8CA6CAA.mvfrm
Library\Bee\artifacts\mvdfrm\UnityEngine.dll_C77DDDA73E7634B8.mvfrm
Library\Bee\artifacts\mvdfrm\UnityEngine.DSPGraphModule.dll_5DB4C18F1B2B3DCB.mvfrm
Library\Bee\artifacts\mvdfrm\UnityEngine.GameCenterModule.dll_2BB584D5A0B0B7E5.mvfrm
Library\Bee\artifacts\mvdfrm\UnityEngine.GIModule.dll_216D2BEC2C92CE50.mvfrm
Library\Bee\artifacts\mvdfrm\UnityEngine.GridModule.dll_5493180E3362C944.mvfrm
Library\Bee\artifacts\mvdfrm\UnityEngine.HotReloadModule.dll_D1F179BCD516142C.mvfrm
Library\Bee\artifacts\mvdfrm\UnityEngine.ImageConversionModule.dll_1BA8631FE14CF2B7.mvfrm
Library\Bee\artifacts\mvdfrm\UnityEngine.IMGUIModule.dll_60FD70903DC8B2FD.mvfrm
Library\Bee\artifacts\mvdfrm\UnityEngine.InputLegacyModule.dll_91A1AFD6789CDF09.mvfrm
Library\Bee\artifacts\mvdfrm\UnityEngine.InputModule.dll_8F1398D9EDCF43C0.mvfrm
Library\Bee\artifacts\mvdfrm\UnityEngine.JSONSerializeModule.dll_2DB1C8B093C5DB8E.mvfrm
Library\Bee\artifacts\mvdfrm\UnityEngine.LocalizationModule.dll_5C59FC96A8634D97.mvfrm
Library\Bee\artifacts\mvdfrm\UnityEngine.NVIDIAModule.dll_4E07E8B6747B8359.mvfrm
Library\Bee\artifacts\mvdfrm\UnityEngine.ParticleSystemModule.dll_357EFDD4617AE493.mvfrm
Library\Bee\artifacts\mvdfrm\UnityEngine.PerformanceReportingModule.dll_A0461882D7E2550C.mvfrm
Library\Bee\artifacts\mvdfrm\UnityEngine.Physics2DModule.dll_9D4EABA79ADFF03F.mvfrm
Library\Bee\artifacts\mvdfrm\UnityEngine.PhysicsModule.dll_231441A7B012056D.mvfrm
Library\Bee\artifacts\mvdfrm\UnityEngine.ProfilerModule.dll_8AA9995C4223F3B7.mvfrm
Library\Bee\artifacts\mvdfrm\UnityEngine.RuntimeInitializeOnLoadManagerInitializerModule.dll_2B21DF1C93585F08.mvfrm
Library\Bee\artifacts\mvdfrm\UnityEngine.ScreenCaptureModule.dll_47997635A83207F0.mvfrm
Library\Bee\artifacts\mvdfrm\UnityEngine.SharedInternalsModule.dll_9FB9A1F5587AEE07.mvfrm
Library\Bee\artifacts\mvdfrm\UnityEngine.SpriteMaskModule.dll_14E1F765C2204D5F.mvfrm
Library\Bee\artifacts\mvdfrm\UnityEngine.SpriteShapeModule.dll_19BDC212964D6122.mvfrm
Library\Bee\artifacts\mvdfrm\UnityEngine.StreamingModule.dll_053DA907496AAFE8.mvfrm
Library\Bee\artifacts\mvdfrm\UnityEngine.SubstanceModule.dll_E1E8BD5094BDADF6.mvfrm
Library\Bee\artifacts\mvdfrm\UnityEngine.SubsystemsModule.dll_7F8F5DC790683572.mvfrm
Library\Bee\artifacts\mvdfrm\UnityEngine.TerrainModule.dll_3D5ABD1685D04E5B.mvfrm
Library\Bee\artifacts\mvdfrm\UnityEngine.TerrainPhysicsModule.dll_35F9A6A77ABDDF20.mvfrm
Library\Bee\artifacts\mvdfrm\UnityEngine.TextCoreFontEngineModule.dll_1ADE591B90CE8A2B.mvfrm
Library\Bee\artifacts\mvdfrm\UnityEngine.TextCoreTextEngineModule.dll_62C68F8D20524349.mvfrm
Library\Bee\artifacts\mvdfrm\UnityEngine.TextRenderingModule.dll_70D8E8405F6987E5.mvfrm
Library\Bee\artifacts\mvdfrm\UnityEngine.TilemapModule.dll_DC5724979D8D2F64.mvfrm
Library\Bee\artifacts\mvdfrm\UnityEngine.TLSModule.dll_438906AF911DB301.mvfrm
Library\Bee\artifacts\mvdfrm\UnityEngine.UIElementsModule.dll_83CDBF2F93947169.mvfrm
Library\Bee\artifacts\mvdfrm\UnityEngine.UIElementsNativeModule.dll_E25AC3758000AF20.mvfrm
Library\Bee\artifacts\mvdfrm\UnityEngine.UIModule.dll_84A4810BED2AEBE2.mvfrm
Library\Bee\artifacts\mvdfrm\UnityEngine.UmbraModule.dll_A3727D4204BDCA8F.mvfrm
Library\Bee\artifacts\mvdfrm\UnityEngine.UNETModule.dll_09C84409681D28C6.mvfrm
Library\Bee\artifacts\mvdfrm\UnityEngine.UnityAnalyticsCommonModule.dll_3B84D5C6F1CAF36A.mvfrm
Library\Bee\artifacts\mvdfrm\UnityEngine.UnityAnalyticsModule.dll_551E6E9E0DA2368F.mvfrm
Library\Bee\artifacts\mvdfrm\UnityEngine.UnityConnectModule.dll_8BD0413D59E78883.mvfrm
Library\Bee\artifacts\mvdfrm\UnityEngine.UnityCurlModule.dll_83C55CE869F6EA97.mvfrm
Library\Bee\artifacts\mvdfrm\UnityEngine.UnityTestProtocolModule.dll_E22D72C433D14A85.mvfrm
Library\Bee\artifacts\mvdfrm\UnityEngine.UnityWebRequestAssetBundleModule.dll_941F64DDF9422CA0.mvfrm
Library\Bee\artifacts\mvdfrm\UnityEngine.UnityWebRequestAudioModule.dll_18426C615E4D1FA4.mvfrm
Library\Bee\artifacts\mvdfrm\UnityEngine.UnityWebRequestModule.dll_2D476AC9EC418D36.mvfrm
Library\Bee\artifacts\mvdfrm\UnityEngine.UnityWebRequestTextureModule.dll_E8937649462BD1F9.mvfrm
Library\Bee\artifacts\mvdfrm\UnityEngine.UnityWebRequestWWWModule.dll_2D88D4E91011FFB5.mvfrm
Library\Bee\artifacts\mvdfrm\UnityEngine.VehiclesModule.dll_D02659A522F43C45.mvfrm
Library\Bee\artifacts\mvdfrm\UnityEngine.VFXModule.dll_C4679F1E678B1C6E.mvfrm
Library\Bee\artifacts\mvdfrm\UnityEngine.VideoModule.dll_4DA755943A293AC1.mvfrm
Library\Bee\artifacts\mvdfrm\UnityEngine.VirtualTexturingModule.dll_06E777E458AF2FAB.mvfrm
Library\Bee\artifacts\mvdfrm\UnityEngine.VRModule.dll_D776A7918EE5715A.mvfrm
Library\Bee\artifacts\mvdfrm\UnityEngine.WindModule.dll_ED70D748AC44B1B6.mvfrm
Library\Bee\artifacts\mvdfrm\UnityEngine.XRModule.dll_0A356A96181FBEB8.mvfrm
Library\Bee\artifacts\mvdfrm\UnityEditor.WindowsStandalone.Extensions.dll_11F99F51E87B3D9E.mvfrm